{"content":[{"id":20783,"testProjectId":29986,"testProjectVersionId":32288,"testMode":"TEST","state":"RUNNING","displayState":"RUNNING","userId":22076,"userEmail":"group4user2003@pochta.ru","teamId":14,"createDate":"2024-09-06T06:33:16.592Z","startDate":"2024-09-06T06:33:17.229Z","endDate":"2024-09-06T07:33:17.229Z","comment":"","labelSet":[],"testProject":{"id":29986,"projectName":"group4user2003@pochta.ru_thr_group4","settingsId":null,"comment":null,"lastModified":null,"contentFormat":null,"contentModelVersion":null,"labelSet":null,"testType":null,"requestCount":null,"totalDuration":null,"version":null},"testProjectVersion":{"id":32288,"projectId":29986,"settingsId":null,"createdOn":1725495399.607000000,"location":"boomq/teams/14/projects/29986/v_32288.yaml","comment":"","contentFormat":"yaml","contentModelVersion":"2.0.0","testType":"STABLE","requestCount":2,"totalDuration":3600,"versionNumber":1},"testResult":{"testId":20783,"usersChartSvg":null,"testResultSlaState":"PROCESSING","slaResults":null,"testResultFilesState":"PROCESSING"},"testError":null},{"id":20782,"testProjectId":29983,"testProjectVersionId":33268,"testMode":"TEST","state":"RUNNING","displayState":"RUNNING","userId":22075,"userEmail":"group4user2002@pochta.ru","teamId":14,"createDate":"2024-09-06T06:33:01.537Z","startDate":"2024-09-06T06:33:02.167Z","endDate":"2024-09-06T07:33:02.167Z","comment":"","labelSet":[],"testProject":{"id":29983,"projectName":"group4user2002@pochta.ru_jmx_file","settingsId":null,"comment":null,"lastModified":null,"contentFormat":null,"contentModelVersion":null,"labelSet":null,"testType":null,"requestCount":null,"totalDuration":null,"version":null},"testProjectVersion":{"id":33268,"projectId":29983,"settingsId":null,"createdOn":1725604381.389000000,"location":"boomq/teams/14/projects/29983/v_33268.yaml","comment":"","contentFormat":"yaml","contentModelVersion":"1.0.0","testType":"OWN_JMX","requestCount":0,"totalDuration":3600,"versionNumber":10},"testResult":{"testId":20782,"usersChartSvg":null,"testResultSlaState":"PROCESSING","slaResults":null,"testResultFilesState":"PROCESSING"},"testError":null},{"id":20781,"testProjectId":29980,"testProjectVersionId":32277,"testMode":"TEST","state":"RUNNING","displayState":"RUNNING","userId":22074,"userEmail":"group4user2001@pochta.ru","teamId":14,"createDate":"2024-09-06T06:32:45.839Z","startDate":"2024-09-06T06:32:46.422Z","endDate":"2024-09-06T07:32:46.422Z","comment":"","labelSet":[],"testProject":{"id":29980,"projectName":"group4user2001@pochta.ru_thr_group4","settingsId":null,"comment":null,"lastModified":null,"contentFormat":null,"contentModelVersion":null,"labelSet":null,"testType":null,"requestCount":null,"totalDuration":null,"version":null},"testProjectVersion":{"id":32277,"projectId":29980,"settingsId":null,"createdOn":1725495099.399000000,"location":"boomq/teams/14/projects/29980/v_32277.yaml","comment":"","contentFormat":"yaml","contentModelVersion":"2.0.0","testType":"STABLE","requestCount":2,"totalDuration":3600,"versionNumber":1},"testResult":{"testId":20781,"usersChartSvg":null,"testResultSlaState":"PROCESSING","slaResults":null,"testResultFilesState":"PROCESSING"},"testError":null},{"id":20780,"testProjectId":29977,"testProjectVersionId":33267,"testMode":"TEST","state":"RUNNING","displayState":"RUNNING","userId":22073,"userEmail":"group4user2000@pochta.ru","teamId":14,"createDate":"2024-09-06T06:32:30.963Z","startDate":"2024-09-06T06:32:31.566Z","endDate":"2024-09-06T07:32:31.566Z","comment":"","labelSet":[],"testProject":{"id":29977,"projectName":"group4user2000@pochta.ru_jmx_file","settingsId":null,"comment":null,"lastModified":null,"contentFormat":null,"contentModelVersion":null,"labelSet":null,"testType":null,"requestCount":null,"totalDuration":null,"version":null},"testProjectVersion":{"id":33267,"projectId":29977,"settingsId":null,"createdOn":1725604350.798000000,"location":"boomq/teams/14/projects/29977/v_33267.yaml","comment":"","contentFormat":"yaml","contentModelVersion":"1.0.0","testType":"OWN_JMX","requestCount":0,"totalDuration":3600,"versionNumber":17},"testResult":{"testId":20780,"usersChartSvg":null,"testResultSlaState":"PROCESSING","slaResults":null,"testResultFilesState":"PROCESSING"},"testError":null},{"id":20779,"testProjectId":29974,"testProjectVersionId":32266,"testMode":"TEST","state":"RUNNING","displayState":"RUNNING","userId":22072,"userEmail":"group4user1999@pochta.ru","teamId":14,"createDate":"2024-09-06T06:32:15.136Z","startDate":"2024-09-06T06:32:15.746Z","endDate":"2024-09-06T07:32:15.746Z","comment":"","labelSet":[],"testProject":{"id":29974,"projectName":"group4user1999@pochta.ru_thr_group4","settingsId":null,"comment":null,"lastModified":null,"contentFormat":null,"contentModelVersion":null,"labelSet":null,"testType":null,"requestCount":null,"totalDuration":null,"version":null},"testProjectVersion":{"id":32266,"projectId":29974,"settingsId":null,"createdOn":1725494798.807000000,"location":"boomq/teams/14/projects/29974/v_32266.yaml","comment":"","contentFormat":"yaml","contentModelVersion":"2.0.0","testType":"STABLE","requestCount":2,"totalDuration":3600,"versionNumber":1},"testResult":{"testId":20779,"usersChartSvg":null,"testResultSlaState":"PROCESSING","slaResults":null,"testResultFilesState":"PROCESSING"},"testError":null},{"id":20778,"testProjectId":29974,"testProjectVersionId":32266,"testMode":"TEST","state":"FAILED","displayState":"FAILED","userId":22072,"userEmail":"group4user1999@pochta.ru","teamId":14,"createDate":"2024-09-06T06:27:32.694Z","startDate":"2024-09-06T06:27:33.276Z","endDate":"2024-09-06T06:28:18.151Z","comment":"","labelSet":[],"testProject":{"id":29974,"projectName":"group4user1999@pochta.ru_thr_group4","settingsId":null,"comment":null,"lastModified":null,"contentFormat":null,"contentModelVersion":null,"labelSet":null,"testType":null,"requestCount":null,"totalDuration":null,"version":null},"testProjectVersion":{"id":32266,"projectId":29974,"settingsId":null,"createdOn":1725494798.807000000,"location":"boomq/teams/14/projects/29974/v_32266.yaml","comment":"","contentFormat":"yaml","contentModelVersion":"2.0.0","testType":"STABLE","requestCount":2,"totalDuration":3600,"versionNumber":1},"testResult":{"testId":20778,"usersChartSvg":"<svg xmlns=\"http://www.w3.org/2000/svg\" xmlns:xlink=\"http://www.w3.org/1999/xlink\" xmlns:jfreesvg=\"http://www.jfree.org/jfreesvg/svg\" width=\"150\" height=\"75\" text-rendering=\"auto\" shape-rendering=\"auto\">\n<defs><clipPath id=\"_21881429826310clip-0\"><path d=\"M 0 0 L 150 0 L 150 75 L 0 75 L 0 0 Z \"/></clipPath>\n<clipPath id=\"_21881429826310clip-1\"><path d=\"M 25 8 L 25 53 L 138 53 L 138 8 Z \"/></clipPath>\n</defs>\n<rect x=\"0\" y=\"0\" width=\"150\" height=\"75\" style=\"fill: rgb(255,255,255); fill-opacity: 1.0\" clip-path=\"url(#_21881429826310clip-0)\"/><rect x=\"25\" y=\"8\" width=\"113\" height=\"45\" style=\"fill: rgb(255,255,255); fill-opacity: 1.0\" clip-path=\"url(#_21881429826310clip-0)\"/><g ><text x=\"7\" y=\"69.11\" style=\"fill: rgb(0,0,0); fill-opacity: 1.0; font-family: sans-serif; font-size: 8px;\" clip-path=\"url(#_21881429826310clip-0)\">00:00:00</text></g><g ><text x=\"109.73\" y=\"69.11\" style=\"fill: rgb(0,0,0); fill-opacity: 1.0; font-family: sans-serif; font-size: 8px;\" clip-path=\"url(#_21881429826310clip-0)\">00:00:40</text></g><g ><text x=\"10\" y=\"56.11\" style=\"fill: rgb(0,0,0); fill-opacity: 1.0; font-family: sans-serif; font-size: 8px;\" clip-path=\"url(#_21881429826310clip-0)\">0</text></g><g ><text x=\"10\" y=\"13.26\" style=\"fill: rgb(0,0,0); fill-opacity: 1.0; font-family: sans-serif; font-size: 8px;\" clip-path=\"url(#_21881429826310clip-0)\">1</text></g><g style=\"stroke-width: 2.0;stroke: rgb(73,137,214);stroke-opacity: 1.0;stroke-linecap: square;shape-rendering:geometricPrecision;; fill: none\" clip-path=\"url(#_21881429826310clip-1)\"><path d=\"M 25 10.14 L 50.68 10.14 L 76.36 10.14 L 102.05 10.14 L 127.73 53\"/></g></svg>","testResultSlaState":"FINISHED","slaResults":{"slaGroupList":[{"type":"GENERAL_TEST_SLA","targetType":"TEST","slaList":[{"restrictionType":"AVERAGE","fromDate":0,"toDate":3600,"operation":"LESS_EQUALS","value":3.0,"result":0.06,"status":"SUCCESS"},{"restrictionType":"THROUGHPUT","fromDate":0,"toDate":3600,"operation":"LESS_EQUALS","value":0.0,"result":0.0,"status":"SUCCESS"}]}],"status":"SUCCESS"},"testResultFilesState":"FINISHED"},"testError":{"exceptionMessageType":"DOCKER_CONTAINER_ERROR","exceptionDescription":"Docker container error","errorDate":"2024-09-06T06:28:18.147Z"}},{"id":20777,"testProjectId":29995,"testProjectVersionId":33266,"testMode":"TEST","state":"FAILED","displayState":"FAILED","userId":22079,"userEmail":"group4user2006@pochta.ru","teamId":14,"createDate":"2024-09-06T06:23:08.135Z","startDate":"2024-09-06T06:25:36.491Z","endDate":"2024-09-06T06:26:33.113Z","comment":"","labelSet":[],"testProject":{"id":29995,"projectName":"group4user2006@pochta.ru_jmx_file","settingsId":null,"comment":null,"lastModified":null,"contentFormat":null,"contentModelVersion":null,"labelSet":null,"testType":null,"requestCount":null,"totalDuration":null,"version":null},"testProjectVersion":{"id":33266,"projectId":29995,"settingsId":null,"createdOn":1725603787.974000000,"location":"boomq/teams/14/projects/29995/v_33266.yaml","comment":"","contentFormat":"yaml","contentModelVersion":"1.0.0","testType":"OWN_JMX","requestCount":0,"totalDuration":3600,"versionNumber":5},"testResult":{"testId":20777,"usersChartSvg":"<svg xmlns=\"http://www.w3.org/2000/svg\" xmlns:xlink=\"http://www.w3.org/1999/xlink\" xmlns:jfreesvg=\"http://www.jfree.org/jfreesvg/svg\" width=\"150\" height=\"75\" text-rendering=\"auto\" shape-rendering=\"auto\">\n<defs><clipPath id=\"_21776391112035clip-0\"><path d=\"M 0 0 L 150 0 L 150 75 L 0 75 L 0 0 Z \"/></clipPath>\n<clipPath id=\"_21776391112035clip-1\"><path d=\"M 25 8 L 25 53 L 138 53 L 138 8 Z \"/></clipPath>\n</defs>\n<rect x=\"0\" y=\"0\" width=\"150\" height=\"75\" style=\"fill: rgb(255,255,255); fill-opacity: 1.0\" clip-path=\"url(#_21776391112035clip-0)\"/><rect x=\"25\" y=\"8\" width=\"113\" height=\"45\" style=\"fill: rgb(255,255,255); fill-opacity: 1.0\" clip-path=\"url(#_21776391112035clip-0)\"/><g ><text x=\"7\" y=\"69.11\" style=\"fill: rgb(0,0,0); fill-opacity: 1.0; font-family: sans-serif; font-size: 8px;\" clip-path=\"url(#_21776391112035clip-0)\">00:00:00</text></g><g ><text x=\"109.73\" y=\"69.11\" style=\"fill: rgb(0,0,0); fill-opacity: 1.0; font-family: sans-serif; font-size: 8px;\" clip-path=\"url(#_21776391112035clip-0)\">00:01:00</text></g><g ><text x=\"10\" y=\"56.11\" style=\"fill: rgb(0,0,0); fill-opacity: 1.0; font-family: sans-serif; font-size: 8px;\" clip-path=\"url(#_21776391112035clip-0)\">0</text></g><g ><text x=\"10\" y=\"13.26\" style=\"fill: rgb(0,0,0); fill-opacity: 1.0; font-family: sans-serif; font-size: 8px;\" clip-path=\"url(#_21776391112035clip-0)\">1</text></g><g style=\"stroke-width: 2.0;stroke: rgb(73,137,214);stroke-opacity: 1.0;stroke-linecap: square;shape-rendering:geometricPrecision;; fill: none\" clip-path=\"url(#_21776391112035clip-1)\"><path d=\"M 25 53 L 42.12 10.14 L 59.24 10.14 L 76.36 10.14 L 93.48 10.14 L 110.61 53 L 127.73 53\"/></g></svg>","testResultSlaState":"FINISHED","slaResults":{"slaGroupList":[{"type":"GENERAL_TEST_SLA","targetType":"TEST","slaList":[{"restrictionType":"AVERAGE","fromDate":0,"toDate":3600,"operation":"LESS_EQUALS","value":3.0,"result":0.05,"status":"SUCCESS"}]}],"status":"SUCCESS"},"testResultFilesState":"FINISHED"},"testError":{"exceptionMessageType":"DOCKER_CONTAINER_ERROR","exceptionDescription":"Docker container error","errorDate":"2024-09-06T06:26:33.106Z"}}],"pageable":{"sort":{"unsorted":false,"sorted":true,"empty":false},"pageNumber":0,"pageSize":7,"offset":0,"paged":true,"unpaged":false},"last":false,"totalElements":853,"totalPages":122,"first":true,"sort":{"unsorted":false,"sorted":true,"empty":false},"numberOfElements":7,"size":7,"number":0,"empty":false}