{"content":[{"id":1950,"teamId":14,"userId":1872,"email":"e.deckdee@gmail.com","userDisplayName":"Даниил","permissionList":["RUN","VIEW","MANAGE_USERS","EDIT","ADMIN","MANAGE_USERS_IN_ORG"],"invitationStatus":"ACCEPTED","inviteUrl":null,"expiredAt":null,"createAt":"2024-08-19T13:21:35.992Z","updatedAt":"2024-08-19T13:21:51.813Z"},{"id":1949,"teamId":14,"userId":1,"email":"admin@boomq.io","userDisplayName":null,"permissionList":["ADMIN"],"invitationStatus":"ACCEPTED","inviteUrl":null,"expiredAt":null,"createAt":"2024-08-19T13:21:35.863Z","updatedAt":"2024-08-19T13:21:35.863Z"},{"id":1955,"teamId":14,"userId":1876,"email":"ololokzn@gmail.com","userDisplayName":"Timur","permissionList":["RUN","VIEW","EDIT","ADMIN","MANAGE_USERS_IN_ORG"],"invitationStatus":"ACCEPTED","inviteUrl":null,"expiredAt":null,"createAt":"2024-08-19T13:25:28.805Z","updatedAt":"2024-08-19T13:25:36.222Z"},{"id":1954,"teamId":14,"userId":1874,"email":"rpavel6757@gmail.com","userDisplayName":"Pavel","permissionList":["RUN","VIEW","EDIT","ADMIN","MANAGE_USERS_IN_ORG"],"invitationStatus":"ACCEPTED","inviteUrl":null,"expiredAt":null,"createAt":"2024-08-19T13:24:37.267Z","updatedAt":"2024-08-19T13:24:50.311Z"},{"id":1965,"teamId":14,"userId":1890,"email":"group4user0000@wtf.ru","userDisplayName":"group4user0000","permissionList":["RUN","VIEW","MANAGE_USERS","EDIT","ADMIN","MANAGE_USERS_IN_ORG"],"invitationStatus":"ACCEPTED","inviteUrl":null,"expiredAt":null,"createAt":"2024-08-22T00:00:00Z","updatedAt":"2024-08-22T00:00:00Z"}],"pageable":{"sort":{"sorted":false,"unsorted":true,"empty":true},"pageNumber":0,"pageSize":5,"offset":0,"unpaged":false,"paged":true},"last":false,"totalElements":21,"totalPages":5,"first":true,"sort":{"sorted":false,"unsorted":true,"empty":true},"size":5,"number":0,"numberOfElements":5,"empty":false}