{"content":[{"id":22057,"teamId":14,"userId":22055,"email":"group4_lruser@gmail.com","userDisplayName":"group4_lruser","permissionList":["RUN","VIEW","EDIT","ADMIN","MANAGE_USERS_IN_ORG"],"invitationStatus":"WAITING_FOR_ACCEPTANCE","inviteUrl":"/auth-srv/invite/_k4kx5rq1KhQ1lhSYHi6vd3fLO0EibLFcm5Mj2nPufKIzeruyqjntxPrhtWzRFYDFFFHx5-fBpk5YblUF_dR4XEAwYMFZkDndKlwoOtlZl7rHel8KK0izYiOtOFRuWpv","expiredAt":"2024-08-29T15:07:38.267Z","createAt":"2024-08-28T15:07:38.267Z","updatedAt":"2024-08-28T15:07:38.339Z"}],"pageable":{"sort":{"sorted":false,"unsorted":true,"empty":true},"pageNumber":4,"pageSize":5,"offset":20,"unpaged":false,"paged":true},"last":true,"totalElements":21,"totalPages":5,"first":false,"sort":{"sorted":false,"unsorted":true,"empty":true},"size":5,"number":4,"numberOfElements":1,"empty":false}