{"content":[{"id":19622,"testProjectId":26322,"testProjectVersionId":27710,"testMode":"TEST","state":"CANCELED","displayState":"CANCELED","userId":1876,"userEmail":"ololokzn@gmail.com","teamId":14,"createDate":"2024-09-02T13:03:49.187Z","startDate":"2024-09-02T13:03:52.012Z","endDate":"2024-09-02T13:06:43.368Z","comment":"","labelSet":[],"testProject":{"id":26322,"projectName":"HOUR 29082024_web_craeted_test_working","settingsId":null,"comment":null,"lastModified":null,"contentFormat":null,"contentModelVersion":null,"labelSet":null,"testType":null,"requestCount":null,"totalDuration":null,"version":null},"testProjectVersion":{"id":27710,"projectId":26322,"settingsId":null,"createdOn":1725282228.250000000,"location":"boomq/teams/14/projects/26322/v_27710.yaml","comment":"","contentFormat":"yaml","contentModelVersion":"2.0.0","testType":"STABLE","requestCount":2,"totalDuration":3600,"versionNumber":10},"testResult":{"testId":19622,"usersChartSvg":"<svg xmlns=\"http://www.w3.org/2000/svg\" xmlns:xlink=\"http://www.w3.org/1999/xlink\" xmlns:jfreesvg=\"http://www.jfree.org/jfreesvg/svg\" width=\"150\" height=\"75\" text-rendering=\"auto\" shape-rendering=\"auto\">\n<defs><clipPath id=\"_1212130801744035clip-0\"><path d=\"M 0 0 L 150 0 L 150 75 L 0 75 L 0 0 Z \"/></clipPath>\n<clipPath id=\"_1212130801744035clip-1\"><path d=\"M 30 8 L 30 53 L 138 53 L 138 8 Z \"/></clipPath>\n</defs>\n<rect x=\"0\" y=\"0\" width=\"150\" height=\"75\" style=\"fill: rgb(255,255,255); fill-opacity: 1.0\" clip-path=\"url(#_1212130801744035clip-0)\"/><rect x=\"30\" y=\"8\" width=\"108\" height=\"45\" style=\"fill: rgb(255,255,255); fill-opacity: 1.0\" clip-path=\"url(#_1212130801744035clip-0)\"/><g ><text x=\"12\" y=\"69.11\" style=\"fill: rgb(0,0,0); fill-opacity: 1.0; font-family: sans-serif; font-size: 8px;\" clip-path=\"url(#_1212130801744035clip-0)\">00:00:00</text></g><g ><text x=\"110.18\" y=\"69.11\" style=\"fill: rgb(0,0,0); fill-opacity: 1.0; font-family: sans-serif; font-size: 8px;\" clip-path=\"url(#_1212130801744035clip-0)\">00:02:50</text></g><g ><text x=\"15\" y=\"56.11\" style=\"fill: rgb(0,0,0); fill-opacity: 1.0; font-family: sans-serif; font-size: 8px;\" clip-path=\"url(#_1212130801744035clip-0)\">0</text></g><g ><text x=\"10\" y=\"13.26\" style=\"fill: rgb(0,0,0); fill-opacity: 1.0; font-family: sans-serif; font-size: 8px;\" clip-path=\"url(#_1212130801744035clip-0)\">20</text></g><g style=\"stroke-width: 2.0;stroke: rgb(73,137,214);stroke-opacity: 1.0;stroke-linecap: square;shape-rendering:geometricPrecision;; fill: none\" clip-path=\"url(#_1212130801744035clip-1)\"><path d=\"M 30 10.14 L 35.78 10.14 L 41.55 10.14 L 47.33 10.14 L 53.1 10.14 L 58.88 10.14 L 64.65 10.14 L 70.43 10.14 L 76.2 10.14 L 81.98 10.14 L 87.75 10.14 L 93.53 10.14 L 99.3 10.14 L 105.08 10.14 L 110.86 10.14 L 116.63 10.14 L 122.41 10.14 L 128.18 53\"/></g></svg>","testResultSlaState":"FINISHED","slaResults":{"slaGroupList":[{"type":"GENERAL_TEST_SLA","targetType":"TEST","slaList":[{"restrictionType":"AVERAGE","fromDate":0,"toDate":720,"operation":"LESS_EQUALS","value":3.0,"result":0.16,"status":"SUCCESS"},{"restrictionType":"THROUGHPUT","fromDate":0,"toDate":120,"operation":"GREATER_THEN","value":0.0,"result":2.33,"status":"SUCCESS"}]}],"status":"SUCCESS"},"testResultFilesState":"FINISHED"},"testError":null},{"id":19598,"testProjectId":26334,"testProjectVersionId":27629,"testMode":"TEST","state":"FAILED","displayState":"FAILED","userId":22082,"userEmail":"group4user2009@pochta.ru","teamId":14,"createDate":"2024-09-02T12:02:49.706Z","startDate":null,"endDate":null,"comment":"","labelSet":[],"testProject":{"id":26334,"projectName":"group4user2009@pochta.ru_thr_group4_2","settingsId":null,"comment":null,"lastModified":null,"contentFormat":null,"contentModelVersion":null,"labelSet":null,"testType":null,"requestCount":null,"totalDuration":null,"version":null},"testProjectVersion":{"id":27629,"projectId":26334,"settingsId":null,"createdOn":1725278222.628000000,"location":"boomq/teams/14/projects/26334/v_27629.yaml","comment":"","contentFormat":"yaml","contentModelVersion":"2.0.0","testType":"STABLE","requestCount":2,"totalDuration":3600,"versionNumber":1},"testResult":{"testId":19598,"usersChartSvg":null,"testResultSlaState":"PROCESSING","slaResults":null,"testResultFilesState":"PROCESSING"},"testError":{"exceptionMessageType":"TEST_GOT_STUCK_AND_FAILED","exceptionDescription":"Test lifecycle got stuck and so it was moved to a failed state. Probably some even handler ended unexpectedly","errorDate":"2024-09-02T12:07:41.244Z"}},{"id":19597,"testProjectId":26333,"testProjectVersionId":27639,"testMode":"TEST","state":"FAILED","displayState":"FAILED","userId":22081,"userEmail":"group4user2008@pochta.ru","teamId":14,"createDate":"2024-09-02T12:02:41.904Z","startDate":null,"endDate":null,"comment":"","labelSet":[],"testProject":{"id":26333,"projectName":"group4user2008@pochta.ru_jmx_file","settingsId":null,"comment":null,"lastModified":null,"contentFormat":null,"contentModelVersion":null,"labelSet":null,"testType":null,"requestCount":null,"totalDuration":null,"version":null},"testProjectVersion":{"id":27639,"projectId":26333,"settingsId":null,"createdOn":1725278561.722000000,"location":"boomq/teams/14/projects/26333/v_27639.yaml","comment":"","contentFormat":"yaml","contentModelVersion":"1.0.0","testType":"OWN_JMX","requestCount":0,"totalDuration":3600,"versionNumber":2},"testResult":{"testId":19597,"usersChartSvg":null,"testResultSlaState":"PROCESSING","slaResults":null,"testResultFilesState":"PROCESSING"},"testError":{"exceptionMessageType":"TEST_GOT_STUCK_AND_FAILED","exceptionDescription":"Test lifecycle got stuck and so it was moved to a failed state. Probably some even handler ended unexpectedly","errorDate":"2024-09-02T12:07:41.265Z"}},{"id":19596,"testProjectId":26332,"testProjectVersionId":27627,"testMode":"TEST","state":"FAILED","displayState":"FAILED","userId":22080,"userEmail":"group4user2007@pochta.ru","teamId":14,"createDate":"2024-09-02T12:02:34.028Z","startDate":null,"endDate":null,"comment":"","labelSet":[],"testProject":{"id":26332,"projectName":"group4user2007@pochta.ru_thr_group4_2","settingsId":null,"comment":null,"lastModified":null,"contentFormat":null,"contentModelVersion":null,"labelSet":null,"testType":null,"requestCount":null,"totalDuration":null,"version":null},"testProjectVersion":{"id":27627,"projectId":26332,"settingsId":null,"createdOn":1725278213.010000000,"location":"boomq/teams/14/projects/26332/v_27627.yaml","comment":"","contentFormat":"yaml","contentModelVersion":"2.0.0","testType":"STABLE","requestCount":2,"totalDuration":3600,"versionNumber":1},"testResult":{"testId":19596,"usersChartSvg":null,"testResultSlaState":"PROCESSING","slaResults":null,"testResultFilesState":"PROCESSING"},"testError":{"exceptionMessageType":"TEST_GOT_STUCK_AND_FAILED","exceptionDescription":"Test lifecycle got stuck and so it was moved to a failed state. Probably some even handler ended unexpectedly","errorDate":"2024-09-02T12:07:41.264Z"}},{"id":19595,"testProjectId":26331,"testProjectVersionId":27638,"testMode":"TEST","state":"FINISHED","displayState":"FINISHED","userId":22079,"userEmail":"group4user2006@pochta.ru","teamId":14,"createDate":"2024-09-02T12:02:26.591Z","startDate":"2024-09-02T12:02:28.631Z","endDate":"2024-09-02T13:02:28.599Z","comment":"","labelSet":[],"testProject":{"id":26331,"projectName":"group4user2006@pochta.ru_jmx_file","settingsId":null,"comment":null,"lastModified":null,"contentFormat":null,"contentModelVersion":null,"labelSet":null,"testType":null,"requestCount":null,"totalDuration":null,"version":null},"testProjectVersion":{"id":27638,"projectId":26331,"settingsId":null,"createdOn":1725278546.402000000,"location":"boomq/teams/14/projects/26331/v_27638.yaml","comment":"","contentFormat":"yaml","contentModelVersion":"1.0.0","testType":"OWN_JMX","requestCount":0,"totalDuration":3600,"versionNumber":2},"testResult":{"testId":19595,"usersChartSvg":"<svg xmlns=\"http://www.w3.org/2000/svg\" xmlns:xlink=\"http://www.w3.org/1999/xlink\" xmlns:jfreesvg=\"http://www.jfree.org/jfreesvg/svg\" width=\"150\" height=\"75\" text-rendering=\"auto\" shape-rendering=\"auto\">\n<defs><clipPath id=\"_1211878827533147clip-0\"><path d=\"M 0 0 L 150 0 L 150 75 L 0 75 L 0 0 Z \"/></clipPath>\n<clipPath id=\"_1211878827533147clip-1\"><path d=\"M 25 8 L 25 53 L 138 53 L 138 8 Z \"/></clipPath>\n</defs>\n<rect x=\"0\" y=\"0\" width=\"150\" height=\"75\" style=\"fill: rgb(255,255,255); fill-opacity: 1.0\" clip-path=\"url(#_1211878827533147clip-0)\"/><rect x=\"25\" y=\"8\" width=\"113\" height=\"45\" style=\"fill: rgb(255,255,255); fill-opacity: 1.0\" clip-path=\"url(#_1211878827533147clip-0)\"/><g ><text x=\"7\" y=\"69.11\" style=\"fill: rgb(0,0,0); fill-opacity: 1.0; font-family: sans-serif; font-size: 8px;\" clip-path=\"url(#_1211878827533147clip-0)\">00:00:00</text></g><g ><text x=\"109.73\" y=\"69.11\" style=\"fill: rgb(0,0,0); fill-opacity: 1.0; font-family: sans-serif; font-size: 8px;\" clip-path=\"url(#_1211878827533147clip-0)\">01:00:00</text></g><g ><text x=\"10\" y=\"56.11\" style=\"fill: rgb(0,0,0); fill-opacity: 1.0; font-family: sans-serif; font-size: 8px;\" clip-path=\"url(#_1211878827533147clip-0)\">0</text></g><g ><text x=\"10\" y=\"13.26\" style=\"fill: rgb(0,0,0); fill-opacity: 1.0; font-family: sans-serif; font-size: 8px;\" clip-path=\"url(#_1211878827533147clip-0)\">1</text></g><g style=\"stroke-width: 2.0;stroke: rgb(73,137,214);stroke-opacity: 1.0;stroke-linecap: square;shape-rendering:geometricPrecision;; fill: none\" clip-path=\"url(#_1211878827533147clip-1)\"><path d=\"M 25 53 L 25.29 10.14 L 25.57 10.14 L 25.86 10.14 L 26.14 10.14 L 26.43 10.14 L 26.71 10.14 L 27 10.14 L 27.28 10.14 L 27.57 10.14 L 27.85 10.14 L 28.14 10.14 L 28.42 10.14 L 28.71 10.14 L 28.99 10.14 L 29.28 10.14 L 29.57 10.14 L 29.85 10.14 L 30.14 10.14 L 30.42 10.14 L 30.71 10.14 L 30.99 10.14 L 31.28 10.14 L 31.56 10.14 L 31.85 10.14 L 32.13 10.14 L 32.42 10.14 L 32.7 10.14 L 32.99 10.14 L 33.28 10.14 L 33.56 10.14 L 33.85 10.14 L 34.13 10.14 L 34.42 10.14 L 34.7 10.14 L 34.99 10.14 L 35.27 10.14 L 35.56 10.14 L 35.84 10.14 L 36.13 10.14 L 36.41 10.14 L 36.7 10.14 L 36.98 10.14 L 37.27 10.14 L 37.56 10.14 L 37.84 10.14 L 38.13 10.14 L 38.41 10.14 L 38.7 10.14 L 38.98 10.14 L 39.27 10.14 L 39.55 10.14 L 39.84 10.14 L 40.12 10.14 L 40.41 10.14 L 40.69 10.14 L 40.98 10.14 L 41.27 10.14 L 41.55 10.14 L 41.84 10.14 L 42.12 10.14 L 42.41 10.14 L 42.69 10.14 L 42.98 10.14 L 43.26 10.14 L 43.55 10.14 L 43.83 10.14 L 44.12 10.14 L 44.4 10.14 L 44.69 10.14 L 44.97 10.14 L 45.26 10.14 L 45.55 10.14 L 45.83 10.14 L 46.12 10.14 L 46.4 10.14 L 46.69 10.14 L 46.97 10.14 L 47.26 10.14 L 47.54 10.14 L 47.83 10.14 L 48.11 10.14 L 48.4 10.14 L 48.68 10.14 L 48.97 10.14 L 49.26 10.14 L 49.54 10.14 L 49.83 10.14 L 50.11 10.14 L 50.4 10.14 L 50.68 10.14 L 50.97 10.14 L 51.25 10.14 L 51.54 10.14 L 51.82 10.14 L 52.11 10.14 L 52.39 10.14 L 52.68 10.14 L 52.96 10.14 L 53.25 10.14 L 53.54 10.14 L 53.82 10.14 L 54.11 10.14 L 54.39 10.14 L 54.68 10.14 L 54.96 10.14 L 55.25 10.14 L 55.53 10.14 L 55.82 10.14 L 56.1 10.14 L 56.39 10.14 L 56.67 10.14 L 56.96 10.14 L 57.24 10.14 L 57.53 10.14 L 57.82 10.14 L 58.1 10.14 L 58.39 10.14 L 58.67 10.14 L 58.96 10.14 L 59.24 10.14 L 59.53 10.14 L 59.81 10.14 L 60.1 10.14 L 60.38 10.14 L 60.67 10.14 L 60.95 10.14 L 61.24 10.14 L 61.53 10.14 L 61.81 10.14 L 62.1 10.14 L 62.38 10.14 L 62.67 10.14 L 62.95 10.14 L 63.24 10.14 L 63.52 10.14 L 63.81 10.14 L 64.09 10.14 L 64.38 10.14 L 64.66 10.14 L 64.95 10.14 L 65.23 10.14 L 65.52 10.14 L 65.81 10.14 L 66.09 10.14 L 66.38 10.14 L 66.66 10.14 L 66.95 10.14 L 67.23 10.14 L 67.52 10.14 L 67.8 10.14 L 68.09 10.14 L 68.37 10.14 L 68.66 10.14 L 68.94 10.14 L 69.23 10.14 L 69.52 10.14 L 69.8 10.14 L 70.09 10.14 L 70.37 10.14 L 70.66 10.14 L 70.94 10.14 L 71.23 10.14 L 71.51 10.14 L 71.8 10.14 L 72.08 10.14 L 72.37 10.14 L 72.65 10.14 L 72.94 10.14 L 73.22 10.14 L 73.51 10.14 L 73.8 10.14 L 74.08 10.14 L 74.37 10.14 L 74.65 10.14 L 74.94 10.14 L 75.22 10.14 L 75.51 10.14 L 75.79 10.14 L 76.08 10.14 L 76.36 10.14 L 76.65 10.14 L 76.93 10.14 L 77.22 10.14 L 77.51 10.14 L 77.79 10.14 L 78.08 10.14 L 78.36 10.14 L 78.65 10.14 L 78.93 10.14 L 79.22 10.14 L 79.5 10.14 L 79.79 10.14 L 80.07 10.14 L 80.36 10.14 L 80.64 10.14 L 80.93 10.14 L 81.21 10.14 L 81.5 10.14 L 81.79 10.14 L 82.07 10.14 L 82.36 10.14 L 82.64 10.14 L 82.93 10.14 L 83.21 10.14 L 83.5 10.14 L 83.78 10.14 L 84.07 10.14 L 84.35 10.14 L 84.64 10.14 L 84.92 10.14 L 85.21 10.14 L 85.49 10.14 L 85.78 10.14 L 86.07 10.14 L 86.35 10.14 L 86.64 10.14 L 86.92 10.14 L 87.21 10.14 L 87.49 10.14 L 87.78 10.14 L 88.06 10.14 L 88.35 10.14 L 88.63 10.14 L 88.92 10.14 L 89.2 10.14 L 89.49 10.14 L 89.78 10.14 L 90.06 10.14 L 90.35 10.14 L 90.63 10.14 L 90.92 10.14 L 91.2 10.14 L 91.49 10.14 L 91.77 10.14 L 92.06 10.14 L 92.34 10.14 L 92.63 10.14 L 92.91 10.14 L 93.2 10.14 L 93.48 10.14 L 93.77 10.14 L 94.06 10.14 L 94.34 10.14 L 94.63 10.14 L 94.91 10.14 L 95.2 10.14 L 95.48 10.14 L 95.77 10.14 L 96.05 10.14 L 96.34 10.14 L 96.62 10.14 L 96.91 10.14 L 97.19 10.14 L 97.48 10.14 L 97.77 10.14 L 98.05 10.14 L 98.34 10.14 L 98.62 10.14 L 98.91 10.14 L 99.19 10.14 L 99.48 10.14 L 99.76 10.14 L 100.05 10.14 L 100.33 10.14 L 100.62 10.14 L 100.9 10.14 L 101.19 10.14 L 101.47 10.14 L 101.76 10.14 L 102.05 10.14 L 102.33 10.14 L 102.62 10.14 L 102.9 10.14 L 103.19 10.14 L 103.47 10.14 L 103.76 10.14 L 104.04 10.14 L 104.33 10.14 L 104.61 10.14 L 104.9 10.14 L 105.18 10.14 L 105.47 10.14 L 105.76 10.14 L 106.04 10.14 L 106.33 10.14 L 106.61 10.14 L 106.9 10.14 L 107.18 10.14 L 107.47 10.14 L 107.75 10.14 L 108.04 10.14 L 108.32 10.14 L 108.61 10.14 L 108.89 10.14 L 109.18 10.14 L 109.46 10.14 L 109.75 10.14 L 110.04 10.14 L 110.32 10.14 L 110.61 10.14 L 110.89 10.14 L 111.18 10.14 L 111.46 10.14 L 111.75 10.14 L 112.03 10.14 L 112.32 10.14 L 112.6 10.14 L 112.89 10.14 L 113.17 10.14 L 113.46 10.14 L 113.74 10.14 L 114.03 10.14 L 114.32 10.14 L 114.6 10.14 L 114.89 10.14 L 115.17 10.14 L 115.46 10.14 L 115.74 10.14 L 116.03 10.14 L 116.31 10.14 L 116.6 10.14 L 116.88 10.14 L 117.17 10.14 L 117.45 10.14 L 117.74 10.14 L 118.03 10.14 L 118.31 10.14 L 118.6 10.14 L 118.88 10.14 L 119.17 10.14 L 119.45 10.14 L 119.74 10.14 L 120.02 10.14 L 120.31 10.14 L 120.59 10.14 L 120.88 10.14 L 121.16 10.14 L 121.45 10.14 L 121.73 10.14 L 122.02 10.14 L 122.31 10.14 L 122.59 10.14 L 122.88 10.14 L 123.16 10.14 L 123.45 10.14 L 123.73 10.14 L 124.02 10.14 L 124.3 10.14 L 124.59 10.14 L 124.87 10.14 L 125.16 10.14 L 125.44 10.14 L 125.73 10.14 L 126.02 10.14 L 126.3 10.14 L 126.59 10.14 L 126.87 10.14 L 127.16 10.14 L 127.44 10.14 L 127.73 53\"/></g></svg>","testResultSlaState":"FINISHED","slaResults":{"slaGroupList":[{"type":"GENERAL_TEST_SLA","targetType":"TEST","slaList":[{"restrictionType":"AVERAGE","fromDate":0,"toDate":3600,"operation":"LESS_EQUALS","value":3.0,"result":0.05,"status":"SUCCESS"}]}],"status":"SUCCESS"},"testResultFilesState":"FINISHED"},"testError":null},{"id":19594,"testProjectId":26330,"testProjectVersionId":27625,"testMode":"TEST","state":"FINISHED","displayState":"FINISHED","userId":22078,"userEmail":"group4user2005@pochta.ru","teamId":14,"createDate":"2024-09-02T12:02:18.824Z","startDate":"2024-09-02T12:02:20.828Z","endDate":"2024-09-02T12:05:18.363Z","comment":"","labelSet":[],"testProject":{"id":26330,"projectName":"group4user2005@pochta.ru_thr_group4_2","settingsId":null,"comment":null,"lastModified":null,"contentFormat":null,"contentModelVersion":null,"labelSet":null,"testType":null,"requestCount":null,"totalDuration":null,"version":null},"testProjectVersion":{"id":27625,"projectId":26330,"settingsId":null,"createdOn":1725278205.581000000,"location":"boomq/teams/14/projects/26330/v_27625.yaml","comment":"","contentFormat":"yaml","contentModelVersion":"2.0.0","testType":"STABLE","requestCount":2,"totalDuration":3600,"versionNumber":1},"testResult":{"testId":19594,"usersChartSvg":"<svg xmlns=\"http://www.w3.org/2000/svg\" xmlns:xlink=\"http://www.w3.org/1999/xlink\" xmlns:jfreesvg=\"http://www.jfree.org/jfreesvg/svg\" width=\"150\" height=\"75\" text-rendering=\"auto\" shape-rendering=\"auto\">\n<defs><clipPath id=\"_1208456541722047clip-0\"><path d=\"M 0 0 L 150 0 L 150 75 L 0 75 L 0 0 Z \"/></clipPath>\n<clipPath id=\"_1208456541722047clip-1\"><path d=\"M 25 8 L 25 53 L 138 53 L 138 8 Z \"/></clipPath>\n</defs>\n<rect x=\"0\" y=\"0\" width=\"150\" height=\"75\" style=\"fill: rgb(255,255,255); fill-opacity: 1.0\" clip-path=\"url(#_1208456541722047clip-0)\"/><rect x=\"25\" y=\"8\" width=\"113\" height=\"45\" style=\"fill: rgb(255,255,255); fill-opacity: 1.0\" clip-path=\"url(#_1208456541722047clip-0)\"/><g ><text x=\"7\" y=\"69.11\" style=\"fill: rgb(0,0,0); fill-opacity: 1.0; font-family: sans-serif; font-size: 8px;\" clip-path=\"url(#_1208456541722047clip-0)\">00:00:00</text></g><g ><text x=\"109.73\" y=\"69.11\" style=\"fill: rgb(0,0,0); fill-opacity: 1.0; font-family: sans-serif; font-size: 8px;\" clip-path=\"url(#_1208456541722047clip-0)\">00:02:50</text></g><g ><text x=\"10\" y=\"56.11\" style=\"fill: rgb(0,0,0); fill-opacity: 1.0; font-family: sans-serif; font-size: 8px;\" clip-path=\"url(#_1208456541722047clip-0)\">0</text></g><g ><text x=\"10\" y=\"13.26\" style=\"fill: rgb(0,0,0); fill-opacity: 1.0; font-family: sans-serif; font-size: 8px;\" clip-path=\"url(#_1208456541722047clip-0)\">1</text></g><g style=\"stroke-width: 2.0;stroke: rgb(73,137,214);stroke-opacity: 1.0;stroke-linecap: square;shape-rendering:geometricPrecision;; fill: none\" clip-path=\"url(#_1208456541722047clip-1)\"><path d=\"M 25 10.14 L 31.04 10.14 L 37.09 10.14 L 43.13 10.14 L 49.17 10.14 L 55.21 10.14 L 61.26 10.14 L 67.3 10.14 L 73.34 10.14 L 79.39 10.14 L 85.43 10.14 L 91.47 10.14 L 97.51 10.14 L 103.56 10.14 L 109.6 10.14 L 115.64 10.14 L 121.68 10.14 L 127.73 53\"/></g></svg>","testResultSlaState":"FINISHED","slaResults":{"slaGroupList":[{"type":"GENERAL_TEST_SLA","targetType":"TEST","slaList":[{"restrictionType":"AVERAGE","fromDate":0,"toDate":3600,"operation":"LESS_EQUALS","value":3.0,"result":0.06,"status":"SUCCESS"},{"restrictionType":"THROUGHPUT","fromDate":0,"toDate":3600,"operation":"LESS_EQUALS","value":0.0,"result":0.01,"status":"FAILURE"}]}],"status":"FAILURE"},"testResultFilesState":"FINISHED"},"testError":null},{"id":19593,"testProjectId":26329,"testProjectVersionId":27637,"testMode":"TEST","state":"FINISHED","displayState":"FINISHED","userId":22077,"userEmail":"group4user2004@pochta.ru","teamId":14,"createDate":"2024-09-02T12:02:12.783Z","startDate":"2024-09-02T12:02:14.740Z","endDate":"2024-09-02T13:02:14.770Z","comment":"","labelSet":[],"testProject":{"id":26329,"projectName":"group4user2004@pochta.ru_jmx_file","settingsId":null,"comment":null,"lastModified":null,"contentFormat":null,"contentModelVersion":null,"labelSet":null,"testType":null,"requestCount":null,"totalDuration":null,"version":null},"testProjectVersion":{"id":27637,"projectId":26329,"settingsId":null,"createdOn":1725278532.662000000,"location":"boomq/teams/14/projects/26329/v_27637.yaml","comment":"","contentFormat":"yaml","contentModelVersion":"1.0.0","testType":"OWN_JMX","requestCount":0,"totalDuration":3600,"versionNumber":2},"testResult":{"testId":19593,"usersChartSvg":"<svg xmlns=\"http://www.w3.org/2000/svg\" xmlns:xlink=\"http://www.w3.org/1999/xlink\" xmlns:jfreesvg=\"http://www.jfree.org/jfreesvg/svg\" width=\"150\" height=\"75\" text-rendering=\"auto\" shape-rendering=\"auto\">\n<defs><clipPath id=\"_1211863822734110clip-0\"><path d=\"M 0 0 L 150 0 L 150 75 L 0 75 L 0 0 Z \"/></clipPath>\n<clipPath id=\"_1211863822734110clip-1\"><path d=\"M 25 8 L 25 53 L 138 53 L 138 8 Z \"/></clipPath>\n</defs>\n<rect x=\"0\" y=\"0\" width=\"150\" height=\"75\" style=\"fill: rgb(255,255,255); fill-opacity: 1.0\" clip-path=\"url(#_1211863822734110clip-0)\"/><rect x=\"25\" y=\"8\" width=\"113\" height=\"45\" style=\"fill: rgb(255,255,255); fill-opacity: 1.0\" clip-path=\"url(#_1211863822734110clip-0)\"/><g ><text x=\"7\" y=\"69.11\" style=\"fill: rgb(0,0,0); fill-opacity: 1.0; font-family: sans-serif; font-size: 8px;\" clip-path=\"url(#_1211863822734110clip-0)\">00:00:00</text></g><g ><text x=\"109.73\" y=\"69.11\" style=\"fill: rgb(0,0,0); fill-opacity: 1.0; font-family: sans-serif; font-size: 8px;\" clip-path=\"url(#_1211863822734110clip-0)\">01:00:00</text></g><g ><text x=\"10\" y=\"56.11\" style=\"fill: rgb(0,0,0); fill-opacity: 1.0; font-family: sans-serif; font-size: 8px;\" clip-path=\"url(#_1211863822734110clip-0)\">0</text></g><g ><text x=\"10\" y=\"13.26\" style=\"fill: rgb(0,0,0); fill-opacity: 1.0; font-family: sans-serif; font-size: 8px;\" clip-path=\"url(#_1211863822734110clip-0)\">1</text></g><g style=\"stroke-width: 2.0;stroke: rgb(73,137,214);stroke-opacity: 1.0;stroke-linecap: square;shape-rendering:geometricPrecision;; fill: none\" clip-path=\"url(#_1211863822734110clip-1)\"><path d=\"M 25 10.14 L 25.29 10.14 L 25.57 10.14 L 25.86 10.14 L 26.14 10.14 L 26.43 10.14 L 26.71 10.14 L 27 10.14 L 27.28 10.14 L 27.57 10.14 L 27.85 10.14 L 28.14 10.14 L 28.42 10.14 L 28.71 10.14 L 28.99 10.14 L 29.28 10.14 L 29.57 10.14 L 29.85 10.14 L 30.14 10.14 L 30.42 10.14 L 30.71 10.14 L 30.99 10.14 L 31.28 10.14 L 31.56 10.14 L 31.85 10.14 L 32.13 10.14 L 32.42 10.14 L 32.7 10.14 L 32.99 10.14 L 33.28 10.14 L 33.56 10.14 L 33.85 10.14 L 34.13 10.14 L 34.42 10.14 L 34.7 10.14 L 34.99 10.14 L 35.27 10.14 L 35.56 10.14 L 35.84 10.14 L 36.13 10.14 L 36.41 10.14 L 36.7 10.14 L 36.98 10.14 L 37.27 10.14 L 37.56 10.14 L 37.84 10.14 L 38.13 10.14 L 38.41 10.14 L 38.7 10.14 L 38.98 10.14 L 39.27 10.14 L 39.55 10.14 L 39.84 10.14 L 40.12 10.14 L 40.41 10.14 L 40.69 10.14 L 40.98 10.14 L 41.27 10.14 L 41.55 10.14 L 41.84 10.14 L 42.12 10.14 L 42.41 10.14 L 42.69 10.14 L 42.98 10.14 L 43.26 10.14 L 43.55 10.14 L 43.83 10.14 L 44.12 10.14 L 44.4 10.14 L 44.69 10.14 L 44.97 10.14 L 45.26 10.14 L 45.55 10.14 L 45.83 10.14 L 46.12 10.14 L 46.4 10.14 L 46.69 10.14 L 46.97 10.14 L 47.26 10.14 L 47.54 10.14 L 47.83 10.14 L 48.11 10.14 L 48.4 10.14 L 48.68 10.14 L 48.97 10.14 L 49.26 10.14 L 49.54 10.14 L 49.83 10.14 L 50.11 10.14 L 50.4 10.14 L 50.68 10.14 L 50.97 10.14 L 51.25 10.14 L 51.54 10.14 L 51.82 10.14 L 52.11 10.14 L 52.39 10.14 L 52.68 10.14 L 52.96 10.14 L 53.25 10.14 L 53.54 10.14 L 53.82 10.14 L 54.11 10.14 L 54.39 10.14 L 54.68 10.14 L 54.96 10.14 L 55.25 10.14 L 55.53 10.14 L 55.82 10.14 L 56.1 10.14 L 56.39 10.14 L 56.67 10.14 L 56.96 10.14 L 57.24 10.14 L 57.53 10.14 L 57.82 10.14 L 58.1 10.14 L 58.39 10.14 L 58.67 10.14 L 58.96 10.14 L 59.24 10.14 L 59.53 10.14 L 59.81 10.14 L 60.1 10.14 L 60.38 10.14 L 60.67 10.14 L 60.95 10.14 L 61.24 10.14 L 61.53 10.14 L 61.81 10.14 L 62.1 10.14 L 62.38 10.14 L 62.67 10.14 L 62.95 10.14 L 63.24 10.14 L 63.52 10.14 L 63.81 10.14 L 64.09 10.14 L 64.38 10.14 L 64.66 10.14 L 64.95 10.14 L 65.23 10.14 L 65.52 10.14 L 65.81 10.14 L 66.09 10.14 L 66.38 10.14 L 66.66 10.14 L 66.95 10.14 L 67.23 10.14 L 67.52 10.14 L 67.8 10.14 L 68.09 10.14 L 68.37 10.14 L 68.66 10.14 L 68.94 10.14 L 69.23 10.14 L 69.52 10.14 L 69.8 10.14 L 70.09 10.14 L 70.37 10.14 L 70.66 10.14 L 70.94 10.14 L 71.23 10.14 L 71.51 10.14 L 71.8 10.14 L 72.08 10.14 L 72.37 10.14 L 72.65 10.14 L 72.94 10.14 L 73.22 10.14 L 73.51 10.14 L 73.8 10.14 L 74.08 10.14 L 74.37 10.14 L 74.65 10.14 L 74.94 10.14 L 75.22 10.14 L 75.51 10.14 L 75.79 10.14 L 76.08 10.14 L 76.36 10.14 L 76.65 10.14 L 76.93 10.14 L 77.22 10.14 L 77.51 10.14 L 77.79 10.14 L 78.08 10.14 L 78.36 10.14 L 78.65 10.14 L 78.93 10.14 L 79.22 10.14 L 79.5 10.14 L 79.79 10.14 L 80.07 10.14 L 80.36 10.14 L 80.64 10.14 L 80.93 10.14 L 81.21 10.14 L 81.5 10.14 L 81.79 10.14 L 82.07 10.14 L 82.36 10.14 L 82.64 10.14 L 82.93 10.14 L 83.21 10.14 L 83.5 10.14 L 83.78 10.14 L 84.07 10.14 L 84.35 10.14 L 84.64 10.14 L 84.92 10.14 L 85.21 10.14 L 85.49 10.14 L 85.78 10.14 L 86.07 10.14 L 86.35 10.14 L 86.64 10.14 L 86.92 10.14 L 87.21 10.14 L 87.49 10.14 L 87.78 10.14 L 88.06 10.14 L 88.35 10.14 L 88.63 10.14 L 88.92 10.14 L 89.2 10.14 L 89.49 10.14 L 89.78 10.14 L 90.06 10.14 L 90.35 10.14 L 90.63 10.14 L 90.92 10.14 L 91.2 10.14 L 91.49 10.14 L 91.77 10.14 L 92.06 10.14 L 92.34 10.14 L 92.63 10.14 L 92.91 10.14 L 93.2 10.14 L 93.48 10.14 L 93.77 10.14 L 94.06 10.14 L 94.34 10.14 L 94.63 10.14 L 94.91 10.14 L 95.2 10.14 L 95.48 10.14 L 95.77 10.14 L 96.05 10.14 L 96.34 10.14 L 96.62 10.14 L 96.91 10.14 L 97.19 10.14 L 97.48 10.14 L 97.77 10.14 L 98.05 10.14 L 98.34 10.14 L 98.62 10.14 L 98.91 10.14 L 99.19 10.14 L 99.48 10.14 L 99.76 10.14 L 100.05 10.14 L 100.33 10.14 L 100.62 10.14 L 100.9 10.14 L 101.19 10.14 L 101.47 10.14 L 101.76 10.14 L 102.05 10.14 L 102.33 10.14 L 102.62 10.14 L 102.9 10.14 L 103.19 10.14 L 103.47 10.14 L 103.76 10.14 L 104.04 10.14 L 104.33 10.14 L 104.61 10.14 L 104.9 10.14 L 105.18 10.14 L 105.47 10.14 L 105.76 10.14 L 106.04 10.14 L 106.33 10.14 L 106.61 10.14 L 106.9 10.14 L 107.18 10.14 L 107.47 10.14 L 107.75 10.14 L 108.04 10.14 L 108.32 10.14 L 108.61 10.14 L 108.89 10.14 L 109.18 10.14 L 109.46 10.14 L 109.75 10.14 L 110.04 10.14 L 110.32 10.14 L 110.61 10.14 L 110.89 10.14 L 111.18 10.14 L 111.46 10.14 L 111.75 10.14 L 112.03 10.14 L 112.32 10.14 L 112.6 10.14 L 112.89 10.14 L 113.17 10.14 L 113.46 10.14 L 113.74 10.14 L 114.03 10.14 L 114.32 10.14 L 114.6 10.14 L 114.89 10.14 L 115.17 10.14 L 115.46 10.14 L 115.74 10.14 L 116.03 10.14 L 116.31 10.14 L 116.6 10.14 L 116.88 10.14 L 117.17 10.14 L 117.45 10.14 L 117.74 10.14 L 118.03 10.14 L 118.31 10.14 L 118.6 10.14 L 118.88 10.14 L 119.17 10.14 L 119.45 10.14 L 119.74 10.14 L 120.02 10.14 L 120.31 10.14 L 120.59 10.14 L 120.88 10.14 L 121.16 10.14 L 121.45 10.14 L 121.73 10.14 L 122.02 10.14 L 122.31 10.14 L 122.59 10.14 L 122.88 10.14 L 123.16 10.14 L 123.45 10.14 L 123.73 10.14 L 124.02 10.14 L 124.3 10.14 L 124.59 10.14 L 124.87 10.14 L 125.16 10.14 L 125.44 10.14 L 125.73 10.14 L 126.02 10.14 L 126.3 10.14 L 126.59 10.14 L 126.87 10.14 L 127.16 10.14 L 127.44 10.14 L 127.73 53\"/></g></svg>","testResultSlaState":"FINISHED","slaResults":{"slaGroupList":[{"type":"GENERAL_TEST_SLA","targetType":"TEST","slaList":[{"restrictionType":"AVERAGE","fromDate":0,"toDate":3600,"operation":"LESS_EQUALS","value":3.0,"result":0.05,"status":"SUCCESS"}]}],"status":"SUCCESS"},"testResultFilesState":"FINISHED"},"testError":null}],"pageable":{"sort":{"unsorted":false,"sorted":true,"empty":false},"offset":0,"pageNumber":0,"pageSize":7,"paged":true,"unpaged":false},"totalElements":596,"totalPages":86,"last":false,"first":true,"size":7,"number":0,"sort":{"unsorted":false,"sorted":true,"empty":false},"numberOfElements":7,"empty":false}