{"content":[{"id":19536,"testProjectId":26254,"testProjectVersionId":27443,"testMode":"TEST","state":"RUNNING","displayState":"RUNNING","userId":22074,"userEmail":"group4user2001@pochta.ru","teamId":14,"createDate":"2024-09-02T11:30:11.613Z","startDate":"2024-09-02T11:30:12.133Z","endDate":"2024-09-02T12:30:12.133Z","comment":"","labelSet":[],"testProject":{"id":26254,"projectName":"group4user2001@pochta.ru_thr_group4","settingsId":null,"comment":null,"lastModified":null,"contentFormat":null,"contentModelVersion":null,"labelSet":null,"testType":null,"requestCount":null,"totalDuration":null,"version":null},"testProjectVersion":{"id":27443,"projectId":26254,"settingsId":null,"createdOn":1725175328.984000000,"location":"boomq/teams/14/projects/26254/v_27443.yaml","comment":"","contentFormat":"yaml","contentModelVersion":"2.0.0","testType":"STABLE","requestCount":2,"totalDuration":3600,"versionNumber":1},"testResult":{"testId":19536,"usersChartSvg":null,"testResultSlaState":"PROCESSING","slaResults":null,"testResultFilesState":"PROCESSING"},"testError":null},{"id":19535,"testProjectId":26253,"testProjectVersionId":27596,"testMode":"TEST","state":"RUNNING","displayState":"RUNNING","userId":22073,"userEmail":"group4user2000@pochta.ru","teamId":14,"createDate":"2024-09-02T11:30:07.053Z","startDate":"2024-09-02T11:30:07.666Z","endDate":"2024-09-02T12:30:07.666Z","comment":"","labelSet":[],"testProject":{"id":26253,"projectName":"group4user2000@pochta.ru_jmx_file","settingsId":null,"comment":null,"lastModified":null,"contentFormat":null,"contentModelVersion":null,"labelSet":null,"testType":null,"requestCount":null,"totalDuration":null,"version":null},"testProjectVersion":{"id":27596,"projectId":26253,"settingsId":null,"createdOn":1725276606.913000000,"location":"boomq/teams/14/projects/26253/v_27596.yaml","comment":"","contentFormat":"yaml","contentModelVersion":"1.0.0","testType":"OWN_JMX","requestCount":0,"totalDuration":3600,"versionNumber":8},"testResult":{"testId":19535,"usersChartSvg":null,"testResultSlaState":"PROCESSING","slaResults":null,"testResultFilesState":"PROCESSING"},"testError":null},{"id":19534,"testProjectId":26252,"testProjectVersionId":27440,"testMode":"TEST","state":"RUNNING","displayState":"RUNNING","userId":22072,"userEmail":"group4user1999@pochta.ru","teamId":14,"createDate":"2024-09-02T11:30:01.848Z","startDate":"2024-09-02T11:30:02.370Z","endDate":"2024-09-02T12:30:02.370Z","comment":"","labelSet":[],"testProject":{"id":26252,"projectName":"group4user1999@pochta.ru_thr_group4","settingsId":null,"comment":null,"lastModified":null,"contentFormat":null,"contentModelVersion":null,"labelSet":null,"testType":null,"requestCount":null,"totalDuration":null,"version":null},"testProjectVersion":{"id":27440,"projectId":26252,"settingsId":null,"createdOn":1725175318.954000000,"location":"boomq/teams/14/projects/26252/v_27440.yaml","comment":"","contentFormat":"yaml","contentModelVersion":"2.0.0","testType":"STABLE","requestCount":2,"totalDuration":3600,"versionNumber":1},"testResult":{"testId":19534,"usersChartSvg":null,"testResultSlaState":"PROCESSING","slaResults":null,"testResultFilesState":"PROCESSING"},"testError":null},{"id":19532,"testProjectId":26252,"testProjectVersionId":27440,"testMode":"TEST","state":"RUNNING","displayState":"RUNNING","userId":22072,"userEmail":"group4user1999@pochta.ru","teamId":14,"createDate":"2024-09-02T11:28:53.832Z","startDate":"2024-09-02T11:28:54.426Z","endDate":"2024-09-02T12:28:54.426Z","comment":"","labelSet":[],"testProject":{"id":26252,"projectName":"group4user1999@pochta.ru_thr_group4","settingsId":null,"comment":null,"lastModified":null,"contentFormat":null,"contentModelVersion":null,"labelSet":null,"testType":null,"requestCount":null,"totalDuration":null,"version":null},"testProjectVersion":{"id":27440,"projectId":26252,"settingsId":null,"createdOn":1725175318.954000000,"location":"boomq/teams/14/projects/26252/v_27440.yaml","comment":"","contentFormat":"yaml","contentModelVersion":"2.0.0","testType":"STABLE","requestCount":2,"totalDuration":3600,"versionNumber":1},"testResult":{"testId":19532,"usersChartSvg":null,"testResultSlaState":"PROCESSING","slaResults":null,"testResultFilesState":"PROCESSING"},"testError":null},{"id":19526,"testProjectId":26242,"testProjectVersionId":27403,"testMode":"TEST","state":"CANCELED","displayState":"CANCELED","userId":22080,"userEmail":"group4user2007@pochta.ru","teamId":14,"createDate":"2024-09-02T11:13:46.671Z","startDate":"2024-09-02T11:13:53.175Z","endDate":"2024-09-02T11:15:22.005Z","comment":"","labelSet":[],"testProject":{"id":26242,"projectName":"group4user2007@pochta.ru_thr_group4","settingsId":null,"comment":null,"lastModified":null,"contentFormat":null,"contentModelVersion":null,"labelSet":null,"testType":null,"requestCount":null,"totalDuration":null,"version":null},"testProjectVersion":{"id":27403,"projectId":26242,"settingsId":null,"createdOn":1725172869.959000000,"location":"boomq/teams/14/projects/26242/v_27403.yaml","comment":"","contentFormat":"yaml","contentModelVersion":"2.0.0","testType":"STABLE","requestCount":2,"totalDuration":3600,"versionNumber":1},"testResult":{"testId":19526,"usersChartSvg":"<svg xmlns=\"http://www.w3.org/2000/svg\" xmlns:xlink=\"http://www.w3.org/1999/xlink\" xmlns:jfreesvg=\"http://www.jfree.org/jfreesvg/svg\" width=\"150\" height=\"75\" text-rendering=\"auto\" shape-rendering=\"auto\">\n<defs><clipPath id=\"_1205449353872822clip-0\"><path d=\"M 0 0 L 150 0 L 150 75 L 0 75 L 0 0 Z \"/></clipPath>\n<clipPath id=\"_1205449353872822clip-1\"><path d=\"M 25 8 L 25 53 L 138 53 L 138 8 Z \"/></clipPath>\n</defs>\n<rect x=\"0\" y=\"0\" width=\"150\" height=\"75\" style=\"fill: rgb(255,255,255); fill-opacity: 1.0\" clip-path=\"url(#_1205449353872822clip-0)\"/><rect x=\"25\" y=\"8\" width=\"113\" height=\"45\" style=\"fill: rgb(255,255,255); fill-opacity: 1.0\" clip-path=\"url(#_1205449353872822clip-0)\"/><g ><text x=\"7\" y=\"69.11\" style=\"fill: rgb(0,0,0); fill-opacity: 1.0; font-family: sans-serif; font-size: 8px;\" clip-path=\"url(#_1205449353872822clip-0)\">00:00:00</text></g><g ><text x=\"109.73\" y=\"69.11\" style=\"fill: rgb(0,0,0); fill-opacity: 1.0; font-family: sans-serif; font-size: 8px;\" clip-path=\"url(#_1205449353872822clip-0)\">00:01:30</text></g><g ><text x=\"10\" y=\"56.11\" style=\"fill: rgb(0,0,0); fill-opacity: 1.0; font-family: sans-serif; font-size: 8px;\" clip-path=\"url(#_1205449353872822clip-0)\">0</text></g><g ><text x=\"10\" y=\"13.26\" style=\"fill: rgb(0,0,0); fill-opacity: 1.0; font-family: sans-serif; font-size: 8px;\" clip-path=\"url(#_1205449353872822clip-0)\">1</text></g><g style=\"stroke-width: 2.0;stroke: rgb(73,137,214);stroke-opacity: 1.0;stroke-linecap: square;shape-rendering:geometricPrecision;; fill: none\" clip-path=\"url(#_1205449353872822clip-1)\"><path d=\"M 25 10.14 L 36.41 10.14 L 47.83 10.14 L 59.24 10.14 L 70.66 10.14 L 82.07 10.14 L 93.48 10.14 L 104.9 10.14 L 116.31 10.14 L 127.73 53\"/></g></svg>","testResultSlaState":"FINISHED","slaResults":{"slaGroupList":[{"type":"GENERAL_TEST_SLA","targetType":"TEST","slaList":[{"restrictionType":"AVERAGE","fromDate":0,"toDate":3600,"operation":"LESS_EQUALS","value":3.0,"result":0.06,"status":"SUCCESS"},{"restrictionType":"THROUGHPUT","fromDate":0,"toDate":3600,"operation":"LESS_EQUALS","value":0.0,"result":0.0,"status":"SUCCESS"}]}],"status":"SUCCESS"},"testResultFilesState":"FINISHED"},"testError":null},{"id":19525,"testProjectId":26242,"testProjectVersionId":27403,"testMode":"TEST","state":"FAILED","displayState":"FAILED","userId":22080,"userEmail":"group4user2007@pochta.ru","teamId":14,"createDate":"2024-09-02T11:13:46.669Z","startDate":null,"endDate":null,"comment":"","labelSet":[],"testProject":{"id":26242,"projectName":"group4user2007@pochta.ru_thr_group4","settingsId":null,"comment":null,"lastModified":null,"contentFormat":null,"contentModelVersion":null,"labelSet":null,"testType":null,"requestCount":null,"totalDuration":null,"version":null},"testProjectVersion":{"id":27403,"projectId":26242,"settingsId":null,"createdOn":1725172869.959000000,"location":"boomq/teams/14/projects/26242/v_27403.yaml","comment":"","contentFormat":"yaml","contentModelVersion":"2.0.0","testType":"STABLE","requestCount":2,"totalDuration":3600,"versionNumber":1},"testResult":{"testId":19525,"usersChartSvg":null,"testResultSlaState":"PROCESSING","slaResults":null,"testResultFilesState":"PROCESSING"},"testError":{"exceptionMessageType":"TEST_GOT_STUCK_AND_FAILED","exceptionDescription":"Test lifecycle got stuck and so it was moved to a failed state. Probably some even handler ended unexpectedly","errorDate":"2024-09-02T11:19:40.409Z"}},{"id":19524,"testProjectId":26242,"testProjectVersionId":27403,"testMode":"TEST","state":"FAILED","displayState":"FAILED","userId":22080,"userEmail":"group4user2007@pochta.ru","teamId":14,"createDate":"2024-09-02T11:13:46.661Z","startDate":null,"endDate":null,"comment":"","labelSet":[],"testProject":{"id":26242,"projectName":"group4user2007@pochta.ru_thr_group4","settingsId":null,"comment":null,"lastModified":null,"contentFormat":null,"contentModelVersion":null,"labelSet":null,"testType":null,"requestCount":null,"totalDuration":null,"version":null},"testProjectVersion":{"id":27403,"projectId":26242,"settingsId":null,"createdOn":1725172869.959000000,"location":"boomq/teams/14/projects/26242/v_27403.yaml","comment":"","contentFormat":"yaml","contentModelVersion":"2.0.0","testType":"STABLE","requestCount":2,"totalDuration":3600,"versionNumber":1},"testResult":{"testId":19524,"usersChartSvg":null,"testResultSlaState":"PROCESSING","slaResults":null,"testResultFilesState":"PROCESSING"},"testError":{"exceptionMessageType":"TEST_GOT_STUCK_AND_FAILED","exceptionDescription":"Test lifecycle got stuck and so it was moved to a failed state. Probably some even handler ended unexpectedly","errorDate":"2024-09-02T11:19:40.408Z"}}],"pageable":{"sort":{"unsorted":false,"sorted":true,"empty":false},"offset":0,"pageNumber":0,"pageSize":7,"paged":true,"unpaged":false},"totalElements":538,"totalPages":77,"last":false,"first":true,"size":7,"number":0,"sort":{"unsorted":false,"sorted":true,"empty":false},"numberOfElements":7,"empty":false}