{"content":[{"id":18945,"testProjectId":25520,"testProjectVersionId":26233,"testMode":"TEST","state":"WAITING","displayState":"WAITING","userId":22074,"userEmail":"group4user2001@pochta.ru","teamId":14,"createDate":"2024-08-30T16:11:34.593Z","startDate":null,"endDate":null,"comment":"","labelSet":[],"testProject":{"id":25520,"projectName":"group4user2001@pochta.ru_thr_group4","settingsId":null,"comment":null,"lastModified":null,"contentFormat":null,"contentModelVersion":null,"labelSet":null,"testType":null,"requestCount":null,"totalDuration":null,"version":null},"testProjectVersion":{"id":26233,"projectId":25520,"settingsId":null,"createdOn":1725034191.576000000,"location":"boomq/teams/14/projects/25520/v_26233.yaml","comment":"","contentFormat":"yaml","contentModelVersion":"2.0.0","testType":"STABLE","requestCount":2,"totalDuration":3600,"versionNumber":1},"testResult":{"testId":18945,"usersChartSvg":null,"testResultSlaState":"PROCESSING","slaResults":null,"testResultFilesState":"PROCESSING"},"testError":null},{"id":18944,"testProjectId":25519,"testProjectVersionId":26243,"testMode":"TEST","state":"WAITING","displayState":"WAITING","userId":22073,"userEmail":"group4user2000@pochta.ru","teamId":14,"createDate":"2024-08-30T16:11:30.800Z","startDate":null,"endDate":null,"comment":"","labelSet":[],"testProject":{"id":25519,"projectName":"group4user2000@pochta.ru_jmx_file","settingsId":null,"comment":null,"lastModified":null,"contentFormat":null,"contentModelVersion":null,"labelSet":null,"testType":null,"requestCount":null,"totalDuration":null,"version":null},"testProjectVersion":{"id":26243,"projectId":25519,"settingsId":null,"createdOn":1725034290.665000000,"location":"boomq/teams/14/projects/25519/v_26243.yaml","comment":"","contentFormat":"yaml","contentModelVersion":"1.0.0","testType":"OWN_JMX","requestCount":0,"totalDuration":3600,"versionNumber":2},"testResult":{"testId":18944,"usersChartSvg":null,"testResultSlaState":"PROCESSING","slaResults":null,"testResultFilesState":"PROCESSING"},"testError":null},{"id":18935,"testProjectId":25412,"testProjectVersionId":25983,"testMode":"TEST","state":"RUNNING","displayState":"RUNNING","userId":22074,"userEmail":"group4user2001@pochta.ru","teamId":14,"createDate":"2024-08-30T15:26:09.339Z","startDate":"2024-08-30T16:15:13.731Z","endDate":"2024-08-30T17:15:13.731Z","comment":"","labelSet":[],"testProject":{"id":25412,"projectName":"group4user2001@pochta.ru_thr_group4","settingsId":null,"comment":null,"lastModified":null,"contentFormat":null,"contentModelVersion":null,"labelSet":null,"testType":null,"requestCount":null,"totalDuration":null,"version":null},"testProjectVersion":{"id":25983,"projectId":25412,"settingsId":null,"createdOn":1724957246.567000000,"location":"boomq/teams/14/projects/25412/v_25983.yaml","comment":"","contentFormat":"yaml","contentModelVersion":"2.0.0","testType":"STABLE","requestCount":2,"totalDuration":3600,"versionNumber":1},"testResult":{"testId":18935,"usersChartSvg":null,"testResultSlaState":"PROCESSING","slaResults":null,"testResultFilesState":"PROCESSING"},"testError":null},{"id":18934,"testProjectId":25411,"testProjectVersionId":26209,"testMode":"TEST","state":"RUNNING","displayState":"RUNNING","userId":22073,"userEmail":"group4user2000@pochta.ru","teamId":14,"createDate":"2024-08-30T15:26:05.747Z","startDate":"2024-08-30T16:03:43.358Z","endDate":"2024-08-30T17:03:43.358Z","comment":"","labelSet":[],"testProject":{"id":25411,"projectName":"group4user2000@pochta.ru_jmx_file","settingsId":null,"comment":null,"lastModified":null,"contentFormat":null,"contentModelVersion":null,"labelSet":null,"testType":null,"requestCount":null,"totalDuration":null,"version":null},"testProjectVersion":{"id":26209,"projectId":25411,"settingsId":null,"createdOn":1725031565.620000000,"location":"boomq/teams/14/projects/25411/v_26209.yaml","comment":"","contentFormat":"yaml","contentModelVersion":"1.0.0","testType":"OWN_JMX","requestCount":0,"totalDuration":3600,"versionNumber":52},"testResult":{"testId":18934,"usersChartSvg":null,"testResultSlaState":"PROCESSING","slaResults":null,"testResultFilesState":"PROCESSING"},"testError":null},{"id":18933,"testProjectId":25412,"testProjectVersionId":25983,"testMode":"TEST","state":"RUNNING","displayState":"RUNNING","userId":22074,"userEmail":"group4user2001@pochta.ru","teamId":14,"createDate":"2024-08-30T15:25:37.658Z","startDate":"2024-08-30T16:00:43.227Z","endDate":"2024-08-30T17:00:43.227Z","comment":"","labelSet":[],"testProject":{"id":25412,"projectName":"group4user2001@pochta.ru_thr_group4","settingsId":null,"comment":null,"lastModified":null,"contentFormat":null,"contentModelVersion":null,"labelSet":null,"testType":null,"requestCount":null,"totalDuration":null,"version":null},"testProjectVersion":{"id":25983,"projectId":25412,"settingsId":null,"createdOn":1724957246.567000000,"location":"boomq/teams/14/projects/25412/v_25983.yaml","comment":"","contentFormat":"yaml","contentModelVersion":"2.0.0","testType":"STABLE","requestCount":2,"totalDuration":3600,"versionNumber":1},"testResult":{"testId":18933,"usersChartSvg":null,"testResultSlaState":"PROCESSING","slaResults":null,"testResultFilesState":"PROCESSING"},"testError":null},{"id":18932,"testProjectId":25411,"testProjectVersionId":26208,"testMode":"TEST","state":"RUNNING","displayState":"RUNNING","userId":22073,"userEmail":"group4user2000@pochta.ru","teamId":14,"createDate":"2024-08-30T15:25:33.570Z","startDate":"2024-08-30T16:00:13.210Z","endDate":"2024-08-30T17:00:13.210Z","comment":"","labelSet":[],"testProject":{"id":25411,"projectName":"group4user2000@pochta.ru_jmx_file","settingsId":null,"comment":null,"lastModified":null,"contentFormat":null,"contentModelVersion":null,"labelSet":null,"testType":null,"requestCount":null,"totalDuration":null,"version":null},"testProjectVersion":{"id":26208,"projectId":25411,"settingsId":null,"createdOn":1725031533.466000000,"location":"boomq/teams/14/projects/25411/v_26208.yaml","comment":"","contentFormat":"yaml","contentModelVersion":"1.0.0","testType":"OWN_JMX","requestCount":0,"totalDuration":3600,"versionNumber":51},"testResult":{"testId":18932,"usersChartSvg":null,"testResultSlaState":"PROCESSING","slaResults":null,"testResultFilesState":"PROCESSING"},"testError":null},{"id":18931,"testProjectId":25412,"testProjectVersionId":25983,"testMode":"TEST","state":"RUNNING","displayState":"RUNNING","userId":22074,"userEmail":"group4user2001@pochta.ru","teamId":14,"createDate":"2024-08-30T15:25:11.223Z","startDate":"2024-08-30T15:49:42.593Z","endDate":"2024-08-30T16:49:42.593Z","comment":"","labelSet":[],"testProject":{"id":25412,"projectName":"group4user2001@pochta.ru_thr_group4","settingsId":null,"comment":null,"lastModified":null,"contentFormat":null,"contentModelVersion":null,"labelSet":null,"testType":null,"requestCount":null,"totalDuration":null,"version":null},"testProjectVersion":{"id":25983,"projectId":25412,"settingsId":null,"createdOn":1724957246.567000000,"location":"boomq/teams/14/projects/25412/v_25983.yaml","comment":"","contentFormat":"yaml","contentModelVersion":"2.0.0","testType":"STABLE","requestCount":2,"totalDuration":3600,"versionNumber":1},"testResult":{"testId":18931,"usersChartSvg":null,"testResultSlaState":"PROCESSING","slaResults":null,"testResultFilesState":"PROCESSING"},"testError":null}],"pageable":{"sort":{"unsorted":false,"sorted":true,"empty":false},"offset":0,"pageNumber":0,"pageSize":7,"paged":true,"unpaged":false},"totalElements":285,"totalPages":41,"last":false,"first":true,"size":7,"number":0,"sort":{"unsorted":false,"sorted":true,"empty":false},"numberOfElements":7,"empty":false}