{"content":[{"id":18376,"testProjectId":25116,"testProjectVersionId":25320,"testMode":"TEST","state":"RUNNING","displayState":"RUNNING","userId":1874,"userEmail":"rpavel6757@gmail.com","teamId":14,"createDate":"2024-08-28T10:40:37.507Z","startDate":"2024-08-28T10:40:38.084Z","endDate":"2024-08-28T11:40:38.084Z","comment":"","labelSet":[],"testProject":{"id":25116,"projectName":"user_____test_thr_group","settingsId":null,"comment":null,"lastModified":null,"contentFormat":null,"contentModelVersion":null,"labelSet":null,"testType":null,"requestCount":null,"totalDuration":null,"version":null},"testProjectVersion":{"id":25320,"projectId":25116,"settingsId":null,"createdOn":1724840837.068000000,"location":"boomq/teams/14/projects/25116/v_25320.yaml","comment":"","contentFormat":"yaml","contentModelVersion":"2.0.0","testType":"STABLE","requestCount":2,"totalDuration":3600,"versionNumber":1},"testResult":{"testId":18376,"usersChartSvg":null,"testResultSlaState":"PROCESSING","slaResults":null,"testResultFilesState":"PROCESSING"},"testError":null},{"id":18375,"testProjectId":15041,"testProjectVersionId":25316,"testMode":"TEST","state":"FINISHED","displayState":"FINISHED","userId":1876,"userEmail":"ololokzn@gmail.com","teamId":14,"createDate":"2024-08-28T04:02:45.931Z","startDate":"2024-08-28T04:03:21.986Z","endDate":"2024-08-28T04:05:16.144Z","comment":"","labelSet":[],"testProject":{"id":15041,"projectName":"test_with_web","settingsId":null,"comment":null,"lastModified":null,"contentFormat":null,"contentModelVersion":null,"labelSet":null,"testType":null,"requestCount":null,"totalDuration":null,"version":null},"testProjectVersion":{"id":25316,"projectId":15041,"settingsId":null,"createdOn":1724817765.844000000,"location":"boomq/teams/14/projects/15041/v_25316.yaml","comment":"","contentFormat":"yaml","contentModelVersion":"2.0.0","testType":"STABLE","requestCount":2,"totalDuration":120,"versionNumber":19},"testResult":{"testId":18375,"usersChartSvg":"<svg xmlns=\"http://www.w3.org/2000/svg\" xmlns:xlink=\"http://www.w3.org/1999/xlink\" xmlns:jfreesvg=\"http://www.jfree.org/jfreesvg/svg\" width=\"150\" height=\"75\" text-rendering=\"auto\" shape-rendering=\"auto\">\n<defs><clipPath id=\"_747623092720804clip-0\"><path d=\"M 0 0 L 150 0 L 150 75 L 0 75 L 0 0 Z \"/></clipPath>\n<clipPath id=\"_747623092720804clip-1\"><path d=\"M 30 8 L 30 53 L 138 53 L 138 8 Z \"/></clipPath>\n</defs>\n<rect x=\"0\" y=\"0\" width=\"150\" height=\"75\" style=\"fill: rgb(255,255,255); fill-opacity: 1.0\" clip-path=\"url(#_747623092720804clip-0)\"/><rect x=\"30\" y=\"8\" width=\"108\" height=\"45\" style=\"fill: rgb(255,255,255); fill-opacity: 1.0\" clip-path=\"url(#_747623092720804clip-0)\"/><g ><text x=\"12\" y=\"69.11\" style=\"fill: rgb(0,0,0); fill-opacity: 1.0; font-family: sans-serif; font-size: 8px;\" clip-path=\"url(#_747623092720804clip-0)\">00:00:00</text></g><g ><text x=\"110.18\" y=\"69.11\" style=\"fill: rgb(0,0,0); fill-opacity: 1.0; font-family: sans-serif; font-size: 8px;\" clip-path=\"url(#_747623092720804clip-0)\">00:01:50</text></g><g ><text x=\"15\" y=\"56.11\" style=\"fill: rgb(0,0,0); fill-opacity: 1.0; font-family: sans-serif; font-size: 8px;\" clip-path=\"url(#_747623092720804clip-0)\">0</text></g><g ><text x=\"10\" y=\"13.26\" style=\"fill: rgb(0,0,0); fill-opacity: 1.0; font-family: sans-serif; font-size: 8px;\" clip-path=\"url(#_747623092720804clip-0)\">10</text></g><g style=\"stroke-width: 2.0;stroke: rgb(73,137,214);stroke-opacity: 1.0;stroke-linecap: square;shape-rendering:geometricPrecision;; fill: none\" clip-path=\"url(#_747623092720804clip-1)\"><path d=\"M 30 10.14 L 38.93 10.14 L 47.85 10.14 L 56.78 10.14 L 65.7 10.14 L 74.63 10.14 L 83.55 10.14 L 92.48 10.14 L 101.4 10.14 L 110.33 10.14 L 119.26 10.14 L 128.18 53\"/></g></svg>","testResultSlaState":"FINISHED","slaResults":{"slaGroupList":[{"type":"GENERAL_TEST_SLA","targetType":"TEST","slaList":[{"restrictionType":"AVERAGE","fromDate":0,"toDate":720,"operation":"LESS_EQUALS","value":3.0,"result":0.14,"status":"SUCCESS"}]}],"status":"SUCCESS"},"testResultFilesState":"FINISHED"},"testError":null},{"id":18374,"testProjectId":15041,"testProjectVersionId":15121,"testMode":"TEST","state":"FINISHED","displayState":"FINISHED","userId":1876,"userEmail":"ololokzn@gmail.com","teamId":14,"createDate":"2024-08-28T03:58:58.787Z","startDate":"2024-08-28T03:59:34.938Z","endDate":"2024-08-28T04:01:29.110Z","comment":"","labelSet":[],"testProject":{"id":15041,"projectName":"test_with_web","settingsId":null,"comment":null,"lastModified":null,"contentFormat":null,"contentModelVersion":null,"labelSet":null,"testType":null,"requestCount":null,"totalDuration":null,"version":null},"testProjectVersion":{"id":15121,"projectId":15041,"settingsId":null,"createdOn":1724737827.028000000,"location":"boomq/teams/14/projects/15041/v_15121.yaml","comment":"","contentFormat":"yaml","contentModelVersion":"2.0.0","testType":"STABLE","requestCount":2,"totalDuration":120,"versionNumber":18},"testResult":{"testId":18374,"usersChartSvg":"<svg xmlns=\"http://www.w3.org/2000/svg\" xmlns:xlink=\"http://www.w3.org/1999/xlink\" xmlns:jfreesvg=\"http://www.jfree.org/jfreesvg/svg\" width=\"150\" height=\"75\" text-rendering=\"auto\" shape-rendering=\"auto\">\n<defs><clipPath id=\"_747382963747608clip-0\"><path d=\"M 0 0 L 150 0 L 150 75 L 0 75 L 0 0 Z \"/></clipPath>\n<clipPath id=\"_747382963747608clip-1\"><path d=\"M 30 8 L 30 53 L 138 53 L 138 8 Z \"/></clipPath>\n</defs>\n<rect x=\"0\" y=\"0\" width=\"150\" height=\"75\" style=\"fill: rgb(255,255,255); fill-opacity: 1.0\" clip-path=\"url(#_747382963747608clip-0)\"/><rect x=\"30\" y=\"8\" width=\"108\" height=\"45\" style=\"fill: rgb(255,255,255); fill-opacity: 1.0\" clip-path=\"url(#_747382963747608clip-0)\"/><g ><text x=\"12\" y=\"69.11\" style=\"fill: rgb(0,0,0); fill-opacity: 1.0; font-family: sans-serif; font-size: 8px;\" clip-path=\"url(#_747382963747608clip-0)\">00:00:00</text></g><g ><text x=\"110.18\" y=\"69.11\" style=\"fill: rgb(0,0,0); fill-opacity: 1.0; font-family: sans-serif; font-size: 8px;\" clip-path=\"url(#_747382963747608clip-0)\">00:01:50</text></g><g ><text x=\"15\" y=\"56.11\" style=\"fill: rgb(0,0,0); fill-opacity: 1.0; font-family: sans-serif; font-size: 8px;\" clip-path=\"url(#_747382963747608clip-0)\">0</text></g><g ><text x=\"10\" y=\"13.26\" style=\"fill: rgb(0,0,0); fill-opacity: 1.0; font-family: sans-serif; font-size: 8px;\" clip-path=\"url(#_747382963747608clip-0)\">10</text></g><g style=\"stroke-width: 2.0;stroke: rgb(73,137,214);stroke-opacity: 1.0;stroke-linecap: square;shape-rendering:geometricPrecision;; fill: none\" clip-path=\"url(#_747382963747608clip-1)\"><path d=\"M 30 53 L 38.93 10.14 L 47.85 10.14 L 56.78 10.14 L 65.7 10.14 L 74.63 10.14 L 83.55 10.14 L 92.48 10.14 L 101.4 10.14 L 110.33 10.14 L 119.26 10.14 L 128.18 53\"/></g></svg>","testResultSlaState":"FINISHED","slaResults":{"slaGroupList":[{"type":"GENERAL_TEST_SLA","targetType":"TEST","slaList":[{"restrictionType":"AVERAGE","fromDate":0,"toDate":720,"operation":"LESS_EQUALS","value":3.0,"result":0.14,"status":"SUCCESS"}]}],"status":"SUCCESS"},"testResultFilesState":"FINISHED"},"testError":null},{"id":18348,"testProjectId":15095,"testProjectVersionId":25291,"testMode":"TEST","state":"FINISHED","displayState":"FINISHED","userId":1874,"userEmail":"rpavel6757@gmail.com","teamId":14,"createDate":"2024-08-27T16:16:29.842Z","startDate":"2024-08-27T16:16:31.847Z","endDate":"2024-08-27T16:18:33.799Z","comment":"","labelSet":[],"testProject":{"id":15095,"projectName":"jmx_new_test","settingsId":null,"comment":null,"lastModified":null,"contentFormat":null,"contentModelVersion":null,"labelSet":null,"testType":null,"requestCount":null,"totalDuration":null,"version":null},"testProjectVersion":{"id":25291,"projectId":15095,"settingsId":null,"createdOn":1724769573.404000000,"location":"boomq/teams/14/projects/15095/v_25291.yaml","comment":"","contentFormat":"yaml","contentModelVersion":"1.0.0","testType":"OWN_JMX","requestCount":0,"totalDuration":51,"versionNumber":12},"testResult":{"testId":18348,"usersChartSvg":"<svg xmlns=\"http://www.w3.org/2000/svg\" xmlns:xlink=\"http://www.w3.org/1999/xlink\" xmlns:jfreesvg=\"http://www.jfree.org/jfreesvg/svg\" width=\"150\" height=\"75\" text-rendering=\"auto\" shape-rendering=\"auto\">\n<defs><clipPath id=\"_705241130107339clip-0\"><path d=\"M 0 0 L 150 0 L 150 75 L 0 75 L 0 0 Z \"/></clipPath>\n<clipPath id=\"_705241130107339clip-1\"><path d=\"M 25 8 L 25 53 L 138 53 L 138 8 Z \"/></clipPath>\n</defs>\n<rect x=\"0\" y=\"0\" width=\"150\" height=\"75\" style=\"fill: rgb(255,255,255); fill-opacity: 1.0\" clip-path=\"url(#_705241130107339clip-0)\"/><rect x=\"25\" y=\"8\" width=\"113\" height=\"45\" style=\"fill: rgb(255,255,255); fill-opacity: 1.0\" clip-path=\"url(#_705241130107339clip-0)\"/><g ><text x=\"7\" y=\"69.11\" style=\"fill: rgb(0,0,0); fill-opacity: 1.0; font-family: sans-serif; font-size: 8px;\" clip-path=\"url(#_705241130107339clip-0)\">00:00:00</text></g><g ><text x=\"109.73\" y=\"69.11\" style=\"fill: rgb(0,0,0); fill-opacity: 1.0; font-family: sans-serif; font-size: 8px;\" clip-path=\"url(#_705241130107339clip-0)\">00:02:00</text></g><g ><text x=\"10\" y=\"56.11\" style=\"fill: rgb(0,0,0); fill-opacity: 1.0; font-family: sans-serif; font-size: 8px;\" clip-path=\"url(#_705241130107339clip-0)\">0</text></g><g ><text x=\"10\" y=\"13.26\" style=\"fill: rgb(0,0,0); fill-opacity: 1.0; font-family: sans-serif; font-size: 8px;\" clip-path=\"url(#_705241130107339clip-0)\">1</text></g><g style=\"stroke-width: 2.0;stroke: rgb(73,137,214);stroke-opacity: 1.0;stroke-linecap: square;shape-rendering:geometricPrecision;; fill: none\" clip-path=\"url(#_705241130107339clip-1)\"><path d=\"M 25 10.14 L 33.56 10.14 L 42.12 10.14 L 50.68 10.14 L 59.24 10.14 L 67.8 10.14 L 76.36 10.14 L 84.92 10.14 L 93.48 10.14 L 102.05 10.14 L 110.61 10.14 L 119.17 10.14 L 127.73 53\"/></g></svg>","testResultSlaState":"FINISHED","slaResults":{"slaGroupList":[{"type":"GENERAL_TEST_SLA","targetType":"TEST","slaList":[{"restrictionType":"AVERAGE","fromDate":0,"toDate":51,"operation":"LESS_EQUALS","value":3.0,"result":0.05,"status":"SUCCESS"}]}],"status":"SUCCESS"},"testResultFilesState":"FINISHED"},"testError":{"exceptionMessageType":"TEST_TIMED_OUT","exceptionDescription":"Test timed out","errorDate":"2024-08-27T16:18:33.799Z"}},{"id":18347,"testProjectId":15093,"testProjectVersionId":25300,"testMode":"TEST","state":"FINISHED","displayState":"FINISHED","userId":1874,"userEmail":"rpavel6757@gmail.com","teamId":14,"createDate":"2024-08-27T16:04:55.734Z","startDate":"2024-08-27T16:04:57.779Z","endDate":"2024-08-27T16:07:01.166Z","comment":"","labelSet":[],"testProject":{"id":15093,"projectName":"test_jmx_pavel","settingsId":null,"comment":null,"lastModified":null,"contentFormat":null,"contentModelVersion":null,"labelSet":null,"testType":null,"requestCount":null,"totalDuration":null,"version":null},"testProjectVersion":{"id":25300,"projectId":15093,"settingsId":null,"createdOn":1724774695.663000000,"location":"boomq/teams/14/projects/15093/v_25300.yaml","comment":"","contentFormat":"yaml","contentModelVersion":"1.0.0","testType":"OWN_JMX","requestCount":0,"totalDuration":52,"versionNumber":21},"testResult":{"testId":18347,"usersChartSvg":"<svg xmlns=\"http://www.w3.org/2000/svg\" xmlns:xlink=\"http://www.w3.org/1999/xlink\" xmlns:jfreesvg=\"http://www.jfree.org/jfreesvg/svg\" width=\"150\" height=\"75\" text-rendering=\"auto\" shape-rendering=\"auto\">\n<defs><clipPath id=\"_704548497292328clip-0\"><path d=\"M 0 0 L 150 0 L 150 75 L 0 75 L 0 0 Z \"/></clipPath>\n<clipPath id=\"_704548497292328clip-1\"><path d=\"M 25 8 L 25 53 L 138 53 L 138 8 Z \"/></clipPath>\n</defs>\n<rect x=\"0\" y=\"0\" width=\"150\" height=\"75\" style=\"fill: rgb(255,255,255); fill-opacity: 1.0\" clip-path=\"url(#_704548497292328clip-0)\"/><rect x=\"25\" y=\"8\" width=\"113\" height=\"45\" style=\"fill: rgb(255,255,255); fill-opacity: 1.0\" clip-path=\"url(#_704548497292328clip-0)\"/><g ><text x=\"7\" y=\"69.11\" style=\"fill: rgb(0,0,0); fill-opacity: 1.0; font-family: sans-serif; font-size: 8px;\" clip-path=\"url(#_704548497292328clip-0)\">00:00:00</text></g><g ><text x=\"109.73\" y=\"69.11\" style=\"fill: rgb(0,0,0); fill-opacity: 1.0; font-family: sans-serif; font-size: 8px;\" clip-path=\"url(#_704548497292328clip-0)\">00:02:10</text></g><g ><text x=\"10\" y=\"56.11\" style=\"fill: rgb(0,0,0); fill-opacity: 1.0; font-family: sans-serif; font-size: 8px;\" clip-path=\"url(#_704548497292328clip-0)\">0</text></g><g ><text x=\"10\" y=\"13.26\" style=\"fill: rgb(0,0,0); fill-opacity: 1.0; font-family: sans-serif; font-size: 8px;\" clip-path=\"url(#_704548497292328clip-0)\">5</text></g><g style=\"stroke-width: 2.0;stroke: rgb(73,137,214);stroke-opacity: 1.0;stroke-linecap: square;shape-rendering:geometricPrecision;; fill: none\" clip-path=\"url(#_704548497292328clip-1)\"><path d=\"M 25 53 L 32.9 10.14 L 40.8 10.14 L 48.71 10.14 L 56.61 10.14 L 64.51 10.14 L 72.41 10.14 L 80.31 10.14 L 88.22 10.14 L 96.12 10.14 L 104.02 10.14 L 111.92 10.14 L 119.83 10.14 L 127.73 53\"/></g></svg>","testResultSlaState":"FINISHED","slaResults":{"slaGroupList":[{"type":"GENERAL_TEST_SLA","targetType":"TEST","slaList":[{"restrictionType":"AVERAGE","fromDate":0,"toDate":52,"operation":"LESS_EQUALS","value":3.0,"result":0.04,"status":"SUCCESS"}]}],"status":"SUCCESS"},"testResultFilesState":"FINISHED"},"testError":{"exceptionMessageType":"TEST_TIMED_OUT","exceptionDescription":"Test timed out","errorDate":"2024-08-27T16:07:01.166Z"}},{"id":18338,"testProjectId":15095,"testProjectVersionId":25297,"testMode":"TEST","state":"FINISHED","displayState":"FINISHED","userId":1874,"userEmail":"rpavel6757@gmail.com","teamId":14,"createDate":"2024-08-27T15:26:05.043Z","startDate":"2024-08-27T15:26:07.064Z","endDate":"2024-08-27T15:28:00.856Z","comment":"","labelSet":[],"testProject":{"id":15095,"projectName":"jmx_new_test","settingsId":null,"comment":null,"lastModified":null,"contentFormat":null,"contentModelVersion":null,"labelSet":null,"testType":null,"requestCount":null,"totalDuration":null,"version":null},"testProjectVersion":{"id":25297,"projectId":15095,"settingsId":null,"createdOn":1724772364.928000000,"location":"boomq/teams/14/projects/15095/v_25297.yaml","comment":"","contentFormat":"yaml","contentModelVersion":"1.0.0","testType":"OWN_JMX","requestCount":0,"totalDuration":51,"versionNumber":18},"testResult":{"testId":18338,"usersChartSvg":"<svg xmlns=\"http://www.w3.org/2000/svg\" xmlns:xlink=\"http://www.w3.org/1999/xlink\" xmlns:jfreesvg=\"http://www.jfree.org/jfreesvg/svg\" width=\"150\" height=\"75\" text-rendering=\"auto\" shape-rendering=\"auto\">\n<defs><clipPath id=\"_702208165284121clip-0\"><path d=\"M 0 0 L 150 0 L 150 75 L 0 75 L 0 0 Z \"/></clipPath>\n<clipPath id=\"_702208165284121clip-1\"><path d=\"M 25 8 L 25 53 L 138 53 L 138 8 Z \"/></clipPath>\n</defs>\n<rect x=\"0\" y=\"0\" width=\"150\" height=\"75\" style=\"fill: rgb(255,255,255); fill-opacity: 1.0\" clip-path=\"url(#_702208165284121clip-0)\"/><rect x=\"25\" y=\"8\" width=\"113\" height=\"45\" style=\"fill: rgb(255,255,255); fill-opacity: 1.0\" clip-path=\"url(#_702208165284121clip-0)\"/><g ><text x=\"7\" y=\"69.11\" style=\"fill: rgb(0,0,0); fill-opacity: 1.0; font-family: sans-serif; font-size: 8px;\" clip-path=\"url(#_702208165284121clip-0)\">00:00:00</text></g><g ><text x=\"109.73\" y=\"69.11\" style=\"fill: rgb(0,0,0); fill-opacity: 1.0; font-family: sans-serif; font-size: 8px;\" clip-path=\"url(#_702208165284121clip-0)\">00:02:00</text></g><g ><text x=\"10\" y=\"56.11\" style=\"fill: rgb(0,0,0); fill-opacity: 1.0; font-family: sans-serif; font-size: 8px;\" clip-path=\"url(#_702208165284121clip-0)\">0</text></g><g ><text x=\"10\" y=\"13.26\" style=\"fill: rgb(0,0,0); fill-opacity: 1.0; font-family: sans-serif; font-size: 8px;\" clip-path=\"url(#_702208165284121clip-0)\">1</text></g><g style=\"stroke-width: 2.0;stroke: rgb(73,137,214);stroke-opacity: 1.0;stroke-linecap: square;shape-rendering:geometricPrecision;; fill: none\" clip-path=\"url(#_702208165284121clip-1)\"><path d=\"M 25 53 L 33.56 10.14 L 42.12 10.14 L 50.68 10.14 L 59.24 10.14 L 67.8 10.14 L 76.36 10.14 L 84.92 10.14 L 93.48 10.14 L 102.05 10.14 L 110.61 10.14 L 119.17 10.14 L 127.73 53\"/></g></svg>","testResultSlaState":"FINISHED","slaResults":{"slaGroupList":[{"type":"GENERAL_TEST_SLA","targetType":"TEST","slaList":[{"restrictionType":"AVERAGE","fromDate":0,"toDate":51,"operation":"LESS_EQUALS","value":3.0,"result":0.05,"status":"SUCCESS"}]}],"status":"SUCCESS"},"testResultFilesState":"FINISHED"},"testError":{"exceptionMessageType":"TEST_TIMED_OUT","exceptionDescription":"Test timed out","errorDate":"2024-08-27T15:28:00.856Z"}},{"id":18337,"testProjectId":15095,"testProjectVersionId":25295,"testMode":"TEST","state":"FINISHED","displayState":"FINISHED","userId":1874,"userEmail":"rpavel6757@gmail.com","teamId":14,"createDate":"2024-08-27T14:48:02.427Z","startDate":"2024-08-27T14:48:38.438Z","endDate":"2024-08-27T14:50:32.389Z","comment":"","labelSet":[],"testProject":{"id":15095,"projectName":"jmx_new_test","settingsId":null,"comment":null,"lastModified":null,"contentFormat":null,"contentModelVersion":null,"labelSet":null,"testType":null,"requestCount":null,"totalDuration":null,"version":null},"testProjectVersion":{"id":25295,"projectId":15095,"settingsId":null,"createdOn":1724770082.359000000,"location":"boomq/teams/14/projects/15095/v_25295.yaml","comment":"","contentFormat":"yaml","contentModelVersion":"1.0.0","testType":"OWN_JMX","requestCount":0,"totalDuration":51,"versionNumber":16},"testResult":{"testId":18337,"usersChartSvg":"<svg xmlns=\"http://www.w3.org/2000/svg\" xmlns:xlink=\"http://www.w3.org/1999/xlink\" xmlns:jfreesvg=\"http://www.jfree.org/jfreesvg/svg\" width=\"150\" height=\"75\" text-rendering=\"auto\" shape-rendering=\"auto\">\n<defs><clipPath id=\"_699926950294956clip-0\"><path d=\"M 0 0 L 150 0 L 150 75 L 0 75 L 0 0 Z \"/></clipPath>\n<clipPath id=\"_699926950294956clip-1\"><path d=\"M 25 8 L 25 53 L 138 53 L 138 8 Z \"/></clipPath>\n</defs>\n<rect x=\"0\" y=\"0\" width=\"150\" height=\"75\" style=\"fill: rgb(255,255,255); fill-opacity: 1.0\" clip-path=\"url(#_699926950294956clip-0)\"/><rect x=\"25\" y=\"8\" width=\"113\" height=\"45\" style=\"fill: rgb(255,255,255); fill-opacity: 1.0\" clip-path=\"url(#_699926950294956clip-0)\"/><g ><text x=\"7\" y=\"69.11\" style=\"fill: rgb(0,0,0); fill-opacity: 1.0; font-family: sans-serif; font-size: 8px;\" clip-path=\"url(#_699926950294956clip-0)\">00:00:00</text></g><g ><text x=\"109.73\" y=\"69.11\" style=\"fill: rgb(0,0,0); fill-opacity: 1.0; font-family: sans-serif; font-size: 8px;\" clip-path=\"url(#_699926950294956clip-0)\">00:02:00</text></g><g ><text x=\"10\" y=\"56.11\" style=\"fill: rgb(0,0,0); fill-opacity: 1.0; font-family: sans-serif; font-size: 8px;\" clip-path=\"url(#_699926950294956clip-0)\">0</text></g><g ><text x=\"10\" y=\"13.26\" style=\"fill: rgb(0,0,0); fill-opacity: 1.0; font-family: sans-serif; font-size: 8px;\" clip-path=\"url(#_699926950294956clip-0)\">1</text></g><g style=\"stroke-width: 2.0;stroke: rgb(73,137,214);stroke-opacity: 1.0;stroke-linecap: square;shape-rendering:geometricPrecision;; fill: none\" clip-path=\"url(#_699926950294956clip-1)\"><path d=\"M 25 53 L 33.56 10.14 L 42.12 10.14 L 50.68 10.14 L 59.24 10.14 L 67.8 10.14 L 76.36 10.14 L 84.92 10.14 L 93.48 10.14 L 102.05 10.14 L 110.61 10.14 L 119.17 10.14 L 127.73 53\"/></g></svg>","testResultSlaState":"FINISHED","slaResults":{"slaGroupList":[{"type":"GENERAL_TEST_SLA","targetType":"TEST","slaList":[{"restrictionType":"AVERAGE","fromDate":0,"toDate":51,"operation":"LESS_EQUALS","value":3.0,"result":0.06,"status":"SUCCESS"}]}],"status":"SUCCESS"},"testResultFilesState":"FINISHED"},"testError":{"exceptionMessageType":"TEST_TIMED_OUT","exceptionDescription":"Test timed out","errorDate":"2024-08-27T14:50:32.389Z"}}],"pageable":{"sort":{"unsorted":false,"sorted":true,"empty":false},"offset":0,"pageNumber":0,"pageSize":7,"paged":true,"unpaged":false},"totalElements":75,"totalPages":11,"last":false,"first":true,"size":7,"number":0,"sort":{"unsorted":false,"sorted":true,"empty":false},"numberOfElements":7,"empty":false}