{"content":[{"id":25677,"projectName":"group4user2144@pochta.ru_jmx_file","settingsId":null,"comment":null,"lastModified":"2024-08-30T16:46:14","contentFormat":"yaml","contentModelVersion":null,"labelSet":[],"testType":"OWN_JMX","requestCount":0,"totalDuration":0,"version":[{"id":26468,"projectId":25677,"settingsId":null,"createdOn":"2024-08-30T16:46:14.746Z","location":"boomq/teams/14/projects/25677/v_26468.yaml","comment":null,"contentFormat":"yaml","contentModelVersion":"1.0.0","testType":"OWN_JMX","requestCount":0,"totalDuration":0,"versionNumber":1}]},{"id":25676,"projectName":"group4user2143@pochta.ru_thr_group4","settingsId":null,"comment":"","lastModified":"2024-08-30T16:45:54","contentFormat":"yaml","contentModelVersion":null,"labelSet":[],"testType":"STABLE","requestCount":2,"totalDuration":3600,"version":[{"id":26467,"projectId":25676,"settingsId":null,"createdOn":"2024-08-30T16:45:54.423Z","location":"boomq/teams/14/projects/25676/v_26467.yaml","comment":"","contentFormat":"yaml","contentModelVersion":"2.0.0","testType":"STABLE","requestCount":2,"totalDuration":3600,"versionNumber":1}]},{"id":25675,"projectName":"group4user2142@pochta.ru_jmx_file","settingsId":null,"comment":null,"lastModified":"2024-08-30T16:45:25","contentFormat":"yaml","contentModelVersion":null,"labelSet":[],"testType":"OWN_JMX","requestCount":0,"totalDuration":0,"version":[{"id":26465,"projectId":25675,"settingsId":null,"createdOn":"2024-08-30T16:45:25.172Z","location":"boomq/teams/14/projects/25675/v_26465.yaml","comment":null,"contentFormat":"yaml","contentModelVersion":"1.0.0","testType":"OWN_JMX","requestCount":0,"totalDuration":0,"versionNumber":1}]},{"id":25674,"projectName":"group4user2141@pochta.ru_thr_group4","settingsId":null,"comment":"","lastModified":"2024-08-30T16:45:05","contentFormat":"yaml","contentModelVersion":null,"labelSet":[],"testType":"STABLE","requestCount":2,"totalDuration":3600,"version":[{"id":26464,"projectId":25674,"settingsId":null,"createdOn":"2024-08-30T16:45:05.638Z","location":"boomq/teams/14/projects/25674/v_26464.yaml","comment":"","contentFormat":"yaml","contentModelVersion":"2.0.0","testType":"STABLE","requestCount":2,"totalDuration":3600,"versionNumber":1}]},{"id":25673,"projectName":"group4user2140@pochta.ru_jmx_file","settingsId":null,"comment":null,"lastModified":"2024-08-30T16:44:38","contentFormat":"yaml","contentModelVersion":null,"labelSet":[],"testType":"OWN_JMX","requestCount":0,"totalDuration":0,"version":[{"id":26461,"projectId":25673,"settingsId":null,"createdOn":"2024-08-30T16:44:38.297Z","location":"boomq/teams/14/projects/25673/v_26461.yaml","comment":null,"contentFormat":"yaml","contentModelVersion":"1.0.0","testType":"OWN_JMX","requestCount":0,"totalDuration":0,"versionNumber":1}]},{"id":25672,"projectName":"group4user2139@pochta.ru_thr_group4","settingsId":null,"comment":"","lastModified":"2024-08-30T16:44:18","contentFormat":"yaml","contentModelVersion":null,"labelSet":[],"testType":"STABLE","requestCount":2,"totalDuration":3600,"version":[{"id":26460,"projectId":25672,"settingsId":null,"createdOn":"2024-08-30T16:44:18.265Z","location":"boomq/teams/14/projects/25672/v_26460.yaml","comment":"","contentFormat":"yaml","contentModelVersion":"2.0.0","testType":"STABLE","requestCount":2,"totalDuration":3600,"versionNumber":1}]},{"id":25671,"projectName":"group4user2138@pochta.ru_jmx_file","settingsId":null,"comment":null,"lastModified":"2024-08-30T16:43:48","contentFormat":"yaml","contentModelVersion":null,"labelSet":[],"testType":"OWN_JMX","requestCount":0,"totalDuration":0,"version":[{"id":26458,"projectId":25671,"settingsId":null,"createdOn":"2024-08-30T16:43:48.226Z","location":"boomq/teams/14/projects/25671/v_26458.yaml","comment":null,"contentFormat":"yaml","contentModelVersion":"1.0.0","testType":"OWN_JMX","requestCount":0,"totalDuration":0,"versionNumber":1}]},{"id":25670,"projectName":"group4user2000@pochta.ru_jmx_file","settingsId":null,"comment":"","lastModified":"2024-08-30T16:43:35","contentFormat":"yaml","contentModelVersion":null,"labelSet":[],"testType":"OWN_JMX","requestCount":0,"totalDuration":3600,"version":[{"id":26456,"projectId":25670,"settingsId":null,"createdOn":"2024-08-30T16:43:35.496Z","location":"boomq/teams/14/projects/25670/v_26456.yaml","comment":null,"contentFormat":"yaml","contentModelVersion":"1.0.0","testType":"OWN_JMX","requestCount":0,"totalDuration":0,"versionNumber":1},{"id":26463,"projectId":25670,"settingsId":null,"createdOn":"2024-08-30T16:44:58.172Z","location":"boomq/teams/14/projects/25670/v_26463.yaml","comment":"","contentFormat":"yaml","contentModelVersion":"1.0.0","testType":"OWN_JMX","requestCount":0,"totalDuration":3600,"versionNumber":2}]},{"id":25669,"projectName":"group4user2137@pochta.ru_thr_group4","settingsId":null,"comment":"","lastModified":"2024-08-30T16:43:28","contentFormat":"yaml","contentModelVersion":null,"labelSet":[],"testType":"STABLE","requestCount":2,"totalDuration":3600,"version":[{"id":26455,"projectId":25669,"settingsId":null,"createdOn":"2024-08-30T16:43:28.265Z","location":"boomq/teams/14/projects/25669/v_26455.yaml","comment":"","contentFormat":"yaml","contentModelVersion":"2.0.0","testType":"STABLE","requestCount":2,"totalDuration":3600,"versionNumber":1}]}],"pageable":{"sort":{"sorted":true,"unsorted":false,"empty":false},"offset":0,"pageNumber":0,"pageSize":9,"paged":true,"unpaged":false},"totalElements":348,"totalPages":39,"last":false,"first":true,"size":9,"number":0,"sort":{"sorted":true,"unsorted":false,"empty":false},"numberOfElements":9,"empty":false}