{"content":[{"id":22057,"teamId":14,"userId":22055,"email":"group4_lruser@gmail.com","userDisplayName":"group4_lruser","permissionList":["RUN","VIEW","EDIT","ADMIN","MANAGE_USERS_IN_ORG"],"invitationStatus":"ACCEPTED","inviteUrl":null,"expiredAt":null,"createAt":"2024-08-28T15:07:38.267Z","updatedAt":"2024-08-28T15:09:49.236Z"},{"id":22058,"teamId":14,"userId":22056,"email":"{RandomString}@gmail.com","userDisplayName":"{RandomString}","permissionList":["RUN","VIEW","EDIT","ADMIN","MANAGE_USERS_IN_ORG"],"invitationStatus":"WAITING_FOR_ACCEPTANCE","inviteUrl":"/auth-srv/invite/PyA2A3_f6IjfLGcnWHKlXGlHFqbHI6knDGC4JPc044ifM6hAg95eAqXg3XjRhszSfz2xn3bSRye0Ggtu4W2t7QTez1WaUB_bsRzBXhz8AVRBgvfOwSW_RQJjIoInuEwe","expiredAt":"2024-08-29T17:26:18.973Z","createAt":"2024-08-28T17:26:18.974Z","updatedAt":"2024-08-28T17:26:19.072Z"},{"id":22059,"teamId":14,"userId":22057,"email":"rrlyctiajri@gmail.com","userDisplayName":"rrlyctiajri","permissionList":["RUN","VIEW","EDIT","ADMIN","MANAGE_USERS_IN_ORG"],"invitationStatus":"WAITING_FOR_ACCEPTANCE","inviteUrl":"/auth-srv/invite/Y7wihuQyjgA2dPfatRQsvBBKkPjZ4m6-USwZJSxOQ2VdDePiA4m6y1h8mAHkaoq9laS-9fVjOyBUOxXwFwtRVf4sk6ldRIMcNDli8UxtDzyVymY7YYN-400lC_FWsqX5","expiredAt":"2024-08-29T18:15:14.113Z","createAt":"2024-08-28T18:15:14.114Z","updatedAt":"2024-08-28T18:15:14.217Z"},{"id":22060,"teamId":14,"userId":22058,"email":"mmepgcxyjsc@gmail.com","userDisplayName":"mmepgcxyjsc","permissionList":["RUN","VIEW","EDIT","ADMIN","MANAGE_USERS_IN_ORG"],"invitationStatus":"WAITING_FOR_ACCEPTANCE","inviteUrl":"/auth-srv/invite/HfF8EhZiwA2xGVWBlwqiB3lREJqnfSgDMj4v4AFvHhFUFVRswxL7gHhZSprZk37HlaS-9fVjOyBUOxXwFwtRVeD-n54Tdcxc9MY4P-CRqN6VymY7YYN-400lC_FWsqX5","expiredAt":"2024-08-29T18:16:40.317Z","createAt":"2024-08-28T18:16:40.317Z","updatedAt":"2024-08-28T18:16:40.367Z"}],"pageable":{"sort":{"sorted":false,"unsorted":true,"empty":true},"pageNumber":4,"pageSize":5,"offset":20,"unpaged":false,"paged":true},"last":true,"totalElements":24,"totalPages":5,"first":false,"sort":{"sorted":false,"unsorted":true,"empty":true},"size":5,"number":4,"numberOfElements":4,"empty":false}