{"content":[{"id":26316,"projectName":"untitled_test_14:12","settingsId":null,"comment":"","lastModified":"2024-09-02T11:13:16","contentFormat":"yaml","contentModelVersion":null,"labelSet":[],"testType":"OWN_JMX","requestCount":0,"totalDuration":71,"version":[{"id":27593,"projectId":26316,"settingsId":null,"createdOn":"2024-09-02T11:13:16.546Z","location":"boomq/teams/14/projects/26316/v_27593.yaml","comment":null,"contentFormat":"yaml","contentModelVersion":"1.0.0","testType":"OWN_JMX","requestCount":0,"totalDuration":0,"versionNumber":1},{"id":27594,"projectId":26316,"settingsId":null,"createdOn":"2024-09-02T11:13:38.404Z","location":"boomq/teams/14/projects/26316/v_27594.yaml","comment":"","contentFormat":"yaml","contentModelVersion":"1.0.0","testType":"OWN_JMX","requestCount":0,"totalDuration":71,"versionNumber":2}]},{"id":26255,"projectName":"group4user2002@pochta.ru_jmx_file","settingsId":null,"comment":"","lastModified":"2024-09-01T07:22:12","contentFormat":"yaml","contentModelVersion":null,"labelSet":[],"testType":"OWN_JMX","requestCount":0,"totalDuration":3600,"version":[{"id":27444,"projectId":26255,"settingsId":null,"createdOn":"2024-09-01T07:22:12.659Z","location":"boomq/teams/14/projects/26255/v_27444.yaml","comment":null,"contentFormat":"yaml","contentModelVersion":"1.0.0","testType":"OWN_JMX","requestCount":0,"totalDuration":0,"versionNumber":1},{"id":27447,"projectId":26255,"settingsId":null,"createdOn":"2024-09-01T07:23:05.863Z","location":"boomq/teams/14/projects/26255/v_27447.yaml","comment":"","contentFormat":"yaml","contentModelVersion":"1.0.0","testType":"OWN_JMX","requestCount":0,"totalDuration":3600,"versionNumber":2},{"id":27511,"projectId":26255,"settingsId":null,"createdOn":"2024-09-01T16:17:55.339Z","location":"boomq/teams/14/projects/26255/v_27511.yaml","comment":"","contentFormat":"yaml","contentModelVersion":"1.0.0","testType":"OWN_JMX","requestCount":0,"totalDuration":3600,"versionNumber":3},{"id":27516,"projectId":26255,"settingsId":null,"createdOn":"2024-09-01T17:13:05.154Z","location":"boomq/teams/14/projects/26255/v_27516.yaml","comment":"","contentFormat":"yaml","contentModelVersion":"1.0.0","testType":"OWN_JMX","requestCount":0,"totalDuration":3600,"versionNumber":4},{"id":27579,"projectId":26255,"settingsId":null,"createdOn":"2024-09-02T09:39:50.222Z","location":"boomq/teams/14/projects/26255/v_27579.yaml","comment":"","contentFormat":"yaml","contentModelVersion":"1.0.0","testType":"OWN_JMX","requestCount":0,"totalDuration":3600,"versionNumber":5}]},{"id":26254,"projectName":"group4user2001@pochta.ru_thr_group4","settingsId":null,"comment":"","lastModified":"2024-09-01T07:22:08","contentFormat":"yaml","contentModelVersion":null,"labelSet":[],"testType":"STABLE","requestCount":2,"totalDuration":3600,"version":[{"id":27443,"projectId":26254,"settingsId":null,"createdOn":"2024-09-01T07:22:08.984Z","location":"boomq/teams/14/projects/26254/v_27443.yaml","comment":"","contentFormat":"yaml","contentModelVersion":"2.0.0","testType":"STABLE","requestCount":2,"totalDuration":3600,"versionNumber":1}]},{"id":26253,"projectName":"group4user2000@pochta.ru_jmx_file","settingsId":null,"comment":"","lastModified":"2024-09-01T07:22:03","contentFormat":"yaml","contentModelVersion":null,"labelSet":[],"testType":"OWN_JMX","requestCount":0,"totalDuration":3600,"version":[{"id":27441,"projectId":26253,"settingsId":null,"createdOn":"2024-09-01T07:22:03.899Z","location":"boomq/teams/14/projects/26253/v_27441.yaml","comment":null,"contentFormat":"yaml","contentModelVersion":"1.0.0","testType":"OWN_JMX","requestCount":0,"totalDuration":0,"versionNumber":1},{"id":27446,"projectId":26253,"settingsId":null,"createdOn":"2024-09-01T07:22:58.636Z","location":"boomq/teams/14/projects/26253/v_27446.yaml","comment":"","contentFormat":"yaml","contentModelVersion":"1.0.0","testType":"OWN_JMX","requestCount":0,"totalDuration":3600,"versionNumber":2},{"id":27510,"projectId":26253,"settingsId":null,"createdOn":"2024-09-01T16:17:44.967Z","location":"boomq/teams/14/projects/26253/v_27510.yaml","comment":"","contentFormat":"yaml","contentModelVersion":"1.0.0","testType":"OWN_JMX","requestCount":0,"totalDuration":3600,"versionNumber":3},{"id":27514,"projectId":26253,"settingsId":null,"createdOn":"2024-09-01T17:10:40.783Z","location":"boomq/teams/14/projects/26253/v_27514.yaml","comment":"","contentFormat":"yaml","contentModelVersion":"1.0.0","testType":"OWN_JMX","requestCount":0,"totalDuration":3600,"versionNumber":4},{"id":27515,"projectId":26253,"settingsId":null,"createdOn":"2024-09-01T17:12:29.752Z","location":"boomq/teams/14/projects/26253/v_27515.yaml","comment":"","contentFormat":"yaml","contentModelVersion":"1.0.0","testType":"OWN_JMX","requestCount":0,"totalDuration":3600,"versionNumber":5},{"id":27578,"projectId":26253,"settingsId":null,"createdOn":"2024-09-02T09:39:36.382Z","location":"boomq/teams/14/projects/26253/v_27578.yaml","comment":"","contentFormat":"yaml","contentModelVersion":"1.0.0","testType":"OWN_JMX","requestCount":0,"totalDuration":3600,"versionNumber":6},{"id":27588,"projectId":26253,"settingsId":null,"createdOn":"2024-09-02T10:14:57.398Z","location":"boomq/teams/14/projects/26253/v_27588.yaml","comment":"","contentFormat":"yaml","contentModelVersion":"1.0.0","testType":"OWN_JMX","requestCount":0,"totalDuration":3600,"versionNumber":7}]},{"id":26252,"projectName":"group4user1999@pochta.ru_thr_group4","settingsId":null,"comment":"","lastModified":"2024-09-01T07:21:58","contentFormat":"yaml","contentModelVersion":null,"labelSet":[],"testType":"STABLE","requestCount":2,"totalDuration":3600,"version":[{"id":27440,"projectId":26252,"settingsId":null,"createdOn":"2024-09-01T07:21:58.954Z","location":"boomq/teams/14/projects/26252/v_27440.yaml","comment":"","contentFormat":"yaml","contentModelVersion":"2.0.0","testType":"STABLE","requestCount":2,"totalDuration":3600,"versionNumber":1}]},{"id":26251,"projectName":"group4user2006@pochta.ru_jmx_file","settingsId":null,"comment":"","lastModified":"2024-09-01T07:16:03","contentFormat":"yaml","contentModelVersion":null,"labelSet":[],"testType":"OWN_JMX","requestCount":0,"totalDuration":3600,"version":[{"id":27433,"projectId":26251,"settingsId":null,"createdOn":"2024-09-01T07:16:03.710Z","location":"boomq/teams/14/projects/26251/v_27433.yaml","comment":null,"contentFormat":"yaml","contentModelVersion":"1.0.0","testType":"OWN_JMX","requestCount":0,"totalDuration":0,"versionNumber":1},{"id":27438,"projectId":26251,"settingsId":null,"createdOn":"2024-09-01T07:17:35.980Z","location":"boomq/teams/14/projects/26251/v_27438.yaml","comment":"","contentFormat":"yaml","contentModelVersion":"1.0.0","testType":"OWN_JMX","requestCount":0,"totalDuration":3600,"versionNumber":2},{"id":27513,"projectId":26251,"settingsId":null,"createdOn":"2024-09-01T16:18:19.843Z","location":"boomq/teams/14/projects/26251/v_27513.yaml","comment":"","contentFormat":"yaml","contentModelVersion":"1.0.0","testType":"OWN_JMX","requestCount":0,"totalDuration":3600,"versionNumber":3},{"id":27518,"projectId":26251,"settingsId":null,"createdOn":"2024-09-01T17:13:39.539Z","location":"boomq/teams/14/projects/26251/v_27518.yaml","comment":"","contentFormat":"yaml","contentModelVersion":"1.0.0","testType":"OWN_JMX","requestCount":0,"totalDuration":3600,"versionNumber":4},{"id":27581,"projectId":26251,"settingsId":null,"createdOn":"2024-09-02T09:40:17.166Z","location":"boomq/teams/14/projects/26251/v_27581.yaml","comment":"","contentFormat":"yaml","contentModelVersion":"1.0.0","testType":"OWN_JMX","requestCount":0,"totalDuration":3600,"versionNumber":5}]},{"id":26250,"projectName":"group4user2005@pochta.ru_thr_group4","settingsId":null,"comment":"","lastModified":"2024-09-01T07:15:59","contentFormat":"yaml","contentModelVersion":null,"labelSet":[],"testType":"STABLE","requestCount":2,"totalDuration":3600,"version":[{"id":27432,"projectId":26250,"settingsId":null,"createdOn":"2024-09-01T07:15:59.160Z","location":"boomq/teams/14/projects/26250/v_27432.yaml","comment":"","contentFormat":"yaml","contentModelVersion":"2.0.0","testType":"STABLE","requestCount":2,"totalDuration":3600,"versionNumber":1}]},{"id":26249,"projectName":"group4user2004@pochta.ru_jmx_file","settingsId":null,"comment":"","lastModified":"2024-09-01T07:15:55","contentFormat":"yaml","contentModelVersion":null,"labelSet":[],"testType":"OWN_JMX","requestCount":0,"totalDuration":3600,"version":[{"id":27430,"projectId":26249,"settingsId":null,"createdOn":"2024-09-01T07:15:55.292Z","location":"boomq/teams/14/projects/26249/v_27430.yaml","comment":null,"contentFormat":"yaml","contentModelVersion":"1.0.0","testType":"OWN_JMX","requestCount":0,"totalDuration":0,"versionNumber":1},{"id":27437,"projectId":26249,"settingsId":null,"createdOn":"2024-09-01T07:17:24.423Z","location":"boomq/teams/14/projects/26249/v_27437.yaml","comment":"","contentFormat":"yaml","contentModelVersion":"1.0.0","testType":"OWN_JMX","requestCount":0,"totalDuration":3600,"versionNumber":2},{"id":27512,"projectId":26249,"settingsId":null,"createdOn":"2024-09-01T16:18:08.092Z","location":"boomq/teams/14/projects/26249/v_27512.yaml","comment":"","contentFormat":"yaml","contentModelVersion":"1.0.0","testType":"OWN_JMX","requestCount":0,"totalDuration":3600,"versionNumber":3},{"id":27517,"projectId":26249,"settingsId":null,"createdOn":"2024-09-01T17:13:21.912Z","location":"boomq/teams/14/projects/26249/v_27517.yaml","comment":"","contentFormat":"yaml","contentModelVersion":"1.0.0","testType":"OWN_JMX","requestCount":0,"totalDuration":3600,"versionNumber":4},{"id":27580,"projectId":26249,"settingsId":null,"createdOn":"2024-09-02T09:40:03.765Z","location":"boomq/teams/14/projects/26249/v_27580.yaml","comment":"","contentFormat":"yaml","contentModelVersion":"1.0.0","testType":"OWN_JMX","requestCount":0,"totalDuration":3600,"versionNumber":5}]},{"id":26248,"projectName":"group4user2003@pochta.ru_thr_group4","settingsId":null,"comment":"","lastModified":"2024-09-01T07:15:51","contentFormat":"yaml","contentModelVersion":null,"labelSet":[],"testType":"STABLE","requestCount":2,"totalDuration":3600,"version":[{"id":27429,"projectId":26248,"settingsId":null,"createdOn":"2024-09-01T07:15:51.973Z","location":"boomq/teams/14/projects/26248/v_27429.yaml","comment":"","contentFormat":"yaml","contentModelVersion":"2.0.0","testType":"STABLE","requestCount":2,"totalDuration":3600,"versionNumber":1}]}],"pageable":{"sort":{"sorted":true,"unsorted":false,"empty":false},"offset":0,"pageNumber":0,"pageSize":9,"paged":true,"unpaged":false},"totalElements":726,"totalPages":81,"last":false,"first":true,"size":9,"number":0,"sort":{"sorted":true,"unsorted":false,"empty":false},"numberOfElements":9,"empty":false}