{"content":[{"id":11207,"name":"new_repot_30.08.2024 9:28:15","createdAt":"2024-08-30T05:28:25.121Z","updatedAt":"2024-08-30T05:28:25.144Z","createdByUserEmail":"group4user2208@pochta.ru","updatedByUserEmail":"group4user2208@pochta.ru","testIdSet":[18526],"labelSet":[]},{"id":11206,"name":"new_repot_30.08.2024 9:18:18","createdAt":"2024-08-30T05:18:27.520Z","updatedAt":"2024-08-30T05:18:27.559Z","createdByUserEmail":"group4user2257@pochta.ru","updatedByUserEmail":"group4user2257@pochta.ru","testIdSet":[18526],"labelSet":[]},{"id":11205,"name":"30.08.2024 9:14:06_TEST-NAME-TEST","createdAt":"2024-08-30T05:14:15.422Z","updatedAt":"2024-08-30T05:14:15.451Z","createdByUserEmail":"group4user2349@pochta.ru","updatedByUserEmail":"group4user2349@pochta.ru","testIdSet":[18526],"labelSet":[]},{"id":11204,"name":"TEST-NAME-TEST","createdAt":"2024-08-30T05:06:36.183Z","updatedAt":"2024-08-30T05:06:36.211Z","createdByUserEmail":"group4user2630@pochta.ru","updatedByUserEmail":"group4user2630@pochta.ru","testIdSet":[18526],"labelSet":[]},{"id":11203,"name":"TEST-NAME-TEST","createdAt":"2024-08-30T04:59:11.910Z","updatedAt":"2024-08-30T04:59:11.957Z","createdByUserEmail":"group4user2434@pochta.ru","updatedByUserEmail":"group4user2434@pochta.ru","testIdSet":[18526],"labelSet":[]},{"id":11202,"name":"TEST-NAME-TEST","createdAt":"2024-08-30T04:56:38.830Z","updatedAt":"2024-08-30T04:56:38.866Z","createdByUserEmail":"ololokzn@gmail.com","updatedByUserEmail":"ololokzn@gmail.com","testIdSet":[18526],"labelSet":[]},{"id":11201,"name":"TEST-NAME-TEST","createdAt":"2024-08-30T04:53:41.602Z","updatedAt":"2024-08-30T04:53:41.662Z","createdByUserEmail":"ololokzn@gmail.com","updatedByUserEmail":"ololokzn@gmail.com","testIdSet":[18526],"labelSet":[]},{"id":11200,"name":"TEST-NAME-TEST","createdAt":"2024-08-30T04:51:01.689Z","updatedAt":"2024-08-30T04:51:01.729Z","createdByUserEmail":"ololokzn@gmail.com","updatedByUserEmail":"ololokzn@gmail.com","testIdSet":[18526],"labelSet":[]},{"id":11198,"name":"TEST-NAME-TEST","createdAt":"2024-08-29T15:13:39.307Z","updatedAt":"2024-08-29T15:13:39.342Z","createdByUserEmail":"ololokzn@gmail.com","updatedByUserEmail":"ololokzn@gmail.com","testIdSet":[18526],"labelSet":[]}],"pageable":{"sort":{"sorted":true,"unsorted":false,"empty":false},"pageNumber":0,"pageSize":9,"offset":0,"unpaged":false,"paged":true},"totalPages":2,"totalElements":11,"last":false,"first":true,"sort":{"sorted":true,"unsorted":false,"empty":false},"numberOfElements":9,"size":9,"number":0,"empty":false}