{"content":[{"id":18860,"testProjectId":25413,"testProjectVersionId":26182,"testMode":"TEST","state":"RUNNING","displayState":"RUNNING","userId":1874,"userEmail":"rpavel6757@gmail.com","teamId":14,"createDate":"2024-08-30T13:50:49.003Z","startDate":"2024-08-30T13:50:49.608Z","endDate":"2024-08-30T14:50:49.608Z","comment":"","labelSet":[],"testProject":{"id":25413,"projectName":"group4user2002@pochta.ru_jmx_file","settingsId":null,"comment":null,"lastModified":null,"contentFormat":null,"contentModelVersion":null,"labelSet":null,"testType":null,"requestCount":null,"totalDuration":null,"version":null},"testProjectVersion":{"id":26182,"projectId":25413,"settingsId":null,"createdOn":1725025847.454000000,"location":"boomq/teams/14/projects/25413/v_26182.yaml","comment":"","contentFormat":"yaml","contentModelVersion":"1.0.0","testType":"OWN_JMX","requestCount":0,"totalDuration":3600,"versionNumber":8},"testResult":{"testId":18860,"usersChartSvg":null,"testResultSlaState":"PROCESSING","slaResults":null,"testResultFilesState":"PROCESSING"},"testError":null},{"id":18797,"testProjectId":25411,"testProjectVersionId":26070,"testMode":"TEST","state":"CANCELED","displayState":"CANCELED","userId":22073,"userEmail":"group4user2000@pochta.ru","teamId":14,"createDate":"2024-08-30T11:51:12.689Z","startDate":"2024-08-30T11:51:14.691Z","endDate":"2024-08-30T11:59:29.536Z","comment":"","labelSet":[],"testProject":{"id":25411,"projectName":"group4user2000@pochta.ru_jmx_file","settingsId":null,"comment":null,"lastModified":null,"contentFormat":null,"contentModelVersion":null,"labelSet":null,"testType":null,"requestCount":null,"totalDuration":null,"version":null},"testProjectVersion":{"id":26070,"projectId":25411,"settingsId":null,"createdOn":1725018672.569000000,"location":"boomq/teams/14/projects/25411/v_26070.yaml","comment":"","contentFormat":"yaml","contentModelVersion":"1.0.0","testType":"OWN_JMX","requestCount":0,"totalDuration":3600,"versionNumber":33},"testResult":{"testId":18797,"usersChartSvg":"<svg xmlns=\"http://www.w3.org/2000/svg\" xmlns:xlink=\"http://www.w3.org/1999/xlink\" xmlns:jfreesvg=\"http://www.jfree.org/jfreesvg/svg\" width=\"150\" height=\"75\" text-rendering=\"auto\" shape-rendering=\"auto\">\n<defs><clipPath id=\"_948896922969605clip-0\"><path d=\"M 0 0 L 150 0 L 150 75 L 0 75 L 0 0 Z \"/></clipPath>\n<clipPath id=\"_948896922969605clip-1\"><path d=\"M 25 8 L 25 53 L 138 53 L 138 8 Z \"/></clipPath>\n</defs>\n<rect x=\"0\" y=\"0\" width=\"150\" height=\"75\" style=\"fill: rgb(255,255,255); fill-opacity: 1.0\" clip-path=\"url(#_948896922969605clip-0)\"/><rect x=\"25\" y=\"8\" width=\"113\" height=\"45\" style=\"fill: rgb(255,255,255); fill-opacity: 1.0\" clip-path=\"url(#_948896922969605clip-0)\"/><g ><text x=\"7\" y=\"69.11\" style=\"fill: rgb(0,0,0); fill-opacity: 1.0; font-family: sans-serif; font-size: 8px;\" clip-path=\"url(#_948896922969605clip-0)\">00:00:00</text></g><g ><text x=\"109.73\" y=\"69.11\" style=\"fill: rgb(0,0,0); fill-opacity: 1.0; font-family: sans-serif; font-size: 8px;\" clip-path=\"url(#_948896922969605clip-0)\">00:08:10</text></g><g ><text x=\"10\" y=\"56.11\" style=\"fill: rgb(0,0,0); fill-opacity: 1.0; font-family: sans-serif; font-size: 8px;\" clip-path=\"url(#_948896922969605clip-0)\">0</text></g><g ><text x=\"10\" y=\"13.26\" style=\"fill: rgb(0,0,0); fill-opacity: 1.0; font-family: sans-serif; font-size: 8px;\" clip-path=\"url(#_948896922969605clip-0)\">1</text></g><g style=\"stroke-width: 2.0;stroke: rgb(73,137,214);stroke-opacity: 1.0;stroke-linecap: square;shape-rendering:geometricPrecision;; fill: none\" clip-path=\"url(#_948896922969605clip-1)\"><path d=\"M 25 10.14 L 27.1 10.14 L 29.19 10.14 L 31.29 10.14 L 33.39 10.14 L 35.48 10.14 L 37.58 10.14 L 39.68 10.14 L 41.77 10.14 L 43.87 10.14 L 45.96 10.14 L 48.06 10.14 L 50.16 10.14 L 52.25 10.14 L 54.35 10.14 L 56.45 10.14 L 58.54 10.14 L 60.64 10.14 L 62.74 10.14 L 64.83 10.14 L 66.93 10.14 L 69.03 10.14 L 71.12 10.14 L 73.22 10.14 L 75.32 10.14 L 77.41 10.14 L 79.51 10.14 L 81.6 10.14 L 83.7 10.14 L 85.8 10.14 L 87.89 10.14 L 89.99 10.14 L 92.09 10.14 L 94.18 10.14 L 96.28 10.14 L 98.38 10.14 L 100.47 10.14 L 102.57 10.14 L 104.67 10.14 L 106.76 10.14 L 108.86 10.14 L 110.96 10.14 L 113.05 10.14 L 115.15 10.14 L 117.24 10.14 L 119.34 10.14 L 121.44 10.14 L 123.53 10.14 L 125.63 10.14 L 127.73 53\"/></g></svg>","testResultSlaState":"FINISHED","slaResults":{"slaGroupList":[{"type":"GENERAL_TEST_SLA","targetType":"TEST","slaList":[{"restrictionType":"AVERAGE","fromDate":0,"toDate":3600,"operation":"LESS_EQUALS","value":3.0,"result":0.05,"status":"SUCCESS"}]}],"status":"SUCCESS"},"testResultFilesState":"FINISHED"},"testError":null},{"id":18796,"testProjectId":25411,"testProjectVersionId":26069,"testMode":"TEST","state":"CANCELED","displayState":"CANCELED","userId":22073,"userEmail":"group4user2000@pochta.ru","teamId":14,"createDate":"2024-08-30T11:48:05.812Z","startDate":"2024-08-30T11:48:07.862Z","endDate":"2024-08-30T11:59:29.180Z","comment":"","labelSet":[],"testProject":{"id":25411,"projectName":"group4user2000@pochta.ru_jmx_file","settingsId":null,"comment":null,"lastModified":null,"contentFormat":null,"contentModelVersion":null,"labelSet":null,"testType":null,"requestCount":null,"totalDuration":null,"version":null},"testProjectVersion":{"id":26069,"projectId":25411,"settingsId":null,"createdOn":1725018485.701000000,"location":"boomq/teams/14/projects/25411/v_26069.yaml","comment":"","contentFormat":"yaml","contentModelVersion":"1.0.0","testType":"OWN_JMX","requestCount":0,"totalDuration":3600,"versionNumber":32},"testResult":{"testId":18796,"usersChartSvg":"<svg xmlns=\"http://www.w3.org/2000/svg\" xmlns:xlink=\"http://www.w3.org/1999/xlink\" xmlns:jfreesvg=\"http://www.jfree.org/jfreesvg/svg\" width=\"150\" height=\"75\" text-rendering=\"auto\" shape-rendering=\"auto\">\n<defs><clipPath id=\"_948896598320632clip-0\"><path d=\"M 0 0 L 150 0 L 150 75 L 0 75 L 0 0 Z \"/></clipPath>\n<clipPath id=\"_948896598320632clip-1\"><path d=\"M 25 8 L 25 53 L 138 53 L 138 8 Z \"/></clipPath>\n</defs>\n<rect x=\"0\" y=\"0\" width=\"150\" height=\"75\" style=\"fill: rgb(255,255,255); fill-opacity: 1.0\" clip-path=\"url(#_948896598320632clip-0)\"/><rect x=\"25\" y=\"8\" width=\"113\" height=\"45\" style=\"fill: rgb(255,255,255); fill-opacity: 1.0\" clip-path=\"url(#_948896598320632clip-0)\"/><g ><text x=\"7\" y=\"69.11\" style=\"fill: rgb(0,0,0); fill-opacity: 1.0; font-family: sans-serif; font-size: 8px;\" clip-path=\"url(#_948896598320632clip-0)\">00:00:00</text></g><g ><text x=\"109.73\" y=\"69.11\" style=\"fill: rgb(0,0,0); fill-opacity: 1.0; font-family: sans-serif; font-size: 8px;\" clip-path=\"url(#_948896598320632clip-0)\">00:11:20</text></g><g ><text x=\"10\" y=\"56.11\" style=\"fill: rgb(0,0,0); fill-opacity: 1.0; font-family: sans-serif; font-size: 8px;\" clip-path=\"url(#_948896598320632clip-0)\">0</text></g><g ><text x=\"10\" y=\"13.26\" style=\"fill: rgb(0,0,0); fill-opacity: 1.0; font-family: sans-serif; font-size: 8px;\" clip-path=\"url(#_948896598320632clip-0)\">1</text></g><g style=\"stroke-width: 2.0;stroke: rgb(73,137,214);stroke-opacity: 1.0;stroke-linecap: square;shape-rendering:geometricPrecision;; fill: none\" clip-path=\"url(#_948896598320632clip-1)\"><path d=\"M 25 53 L 26.51 10.14 L 28.02 10.14 L 29.53 10.14 L 31.04 10.14 L 32.55 10.14 L 34.06 10.14 L 35.57 10.14 L 37.09 10.14 L 38.6 10.14 L 40.11 10.14 L 41.62 10.14 L 43.13 10.14 L 44.64 10.14 L 46.15 10.14 L 47.66 10.14 L 49.17 10.14 L 50.68 10.14 L 52.19 10.14 L 53.7 10.14 L 55.21 10.14 L 56.72 10.14 L 58.24 10.14 L 59.75 10.14 L 61.26 10.14 L 62.77 10.14 L 64.28 10.14 L 65.79 10.14 L 67.3 10.14 L 68.81 10.14 L 70.32 10.14 L 71.83 10.14 L 73.34 10.14 L 74.85 10.14 L 76.36 10.14 L 77.87 10.14 L 79.39 10.14 L 80.9 10.14 L 82.41 10.14 L 83.92 10.14 L 85.43 10.14 L 86.94 10.14 L 88.45 10.14 L 89.96 10.14 L 91.47 10.14 L 92.98 10.14 L 94.49 10.14 L 96 10.14 L 97.51 10.14 L 99.02 10.14 L 100.53 10.14 L 102.05 10.14 L 103.56 10.14 L 105.07 10.14 L 106.58 10.14 L 108.09 10.14 L 109.6 10.14 L 111.11 10.14 L 112.62 10.14 L 114.13 10.14 L 115.64 10.14 L 117.15 10.14 L 118.66 10.14 L 120.17 10.14 L 121.68 10.14 L 123.2 10.14 L 124.71 10.14 L 126.22 10.14 L 127.73 53\"/></g></svg>","testResultSlaState":"FINISHED","slaResults":{"slaGroupList":[{"type":"GENERAL_TEST_SLA","targetType":"TEST","slaList":[{"restrictionType":"AVERAGE","fromDate":0,"toDate":3600,"operation":"LESS_EQUALS","value":3.0,"result":0.05,"status":"SUCCESS"}]}],"status":"SUCCESS"},"testResultFilesState":"FINISHED"},"testError":null},{"id":18794,"testProjectId":25411,"testProjectVersionId":26066,"testMode":"TEST","state":"CANCELED","displayState":"CANCELED","userId":22073,"userEmail":"group4user2000@pochta.ru","teamId":14,"createDate":"2024-08-30T11:16:38.017Z","startDate":"2024-08-30T11:16:40.516Z","endDate":"2024-08-30T11:59:30.753Z","comment":"","labelSet":[],"testProject":{"id":25411,"projectName":"group4user2000@pochta.ru_jmx_file","settingsId":null,"comment":null,"lastModified":null,"contentFormat":null,"contentModelVersion":null,"labelSet":null,"testType":null,"requestCount":null,"totalDuration":null,"version":null},"testProjectVersion":{"id":26066,"projectId":25411,"settingsId":null,"createdOn":1725016597.838000000,"location":"boomq/teams/14/projects/25411/v_26066.yaml","comment":"","contentFormat":"yaml","contentModelVersion":"1.0.0","testType":"OWN_JMX","requestCount":0,"totalDuration":3600,"versionNumber":31},"testResult":{"testId":18794,"usersChartSvg":"<svg xmlns=\"http://www.w3.org/2000/svg\" xmlns:xlink=\"http://www.w3.org/1999/xlink\" xmlns:jfreesvg=\"http://www.jfree.org/jfreesvg/svg\" width=\"150\" height=\"75\" text-rendering=\"auto\" shape-rendering=\"auto\">\n<defs><clipPath id=\"_948898096131805clip-0\"><path d=\"M 0 0 L 150 0 L 150 75 L 0 75 L 0 0 Z \"/></clipPath>\n<clipPath id=\"_948898096131805clip-1\"><path d=\"M 25 8 L 25 53 L 138 53 L 138 8 Z \"/></clipPath>\n</defs>\n<rect x=\"0\" y=\"0\" width=\"150\" height=\"75\" style=\"fill: rgb(255,255,255); fill-opacity: 1.0\" clip-path=\"url(#_948898096131805clip-0)\"/><rect x=\"25\" y=\"8\" width=\"113\" height=\"45\" style=\"fill: rgb(255,255,255); fill-opacity: 1.0\" clip-path=\"url(#_948898096131805clip-0)\"/><g ><text x=\"7\" y=\"69.11\" style=\"fill: rgb(0,0,0); fill-opacity: 1.0; font-family: sans-serif; font-size: 8px;\" clip-path=\"url(#_948898096131805clip-0)\">00:00:00</text></g><g ><text x=\"109.73\" y=\"69.11\" style=\"fill: rgb(0,0,0); fill-opacity: 1.0; font-family: sans-serif; font-size: 8px;\" clip-path=\"url(#_948898096131805clip-0)\">00:42:50</text></g><g ><text x=\"10\" y=\"56.11\" style=\"fill: rgb(0,0,0); fill-opacity: 1.0; font-family: sans-serif; font-size: 8px;\" clip-path=\"url(#_948898096131805clip-0)\">0</text></g><g ><text x=\"10\" y=\"13.26\" style=\"fill: rgb(0,0,0); fill-opacity: 1.0; font-family: sans-serif; font-size: 8px;\" clip-path=\"url(#_948898096131805clip-0)\">1</text></g><g style=\"stroke-width: 2.0;stroke: rgb(73,137,214);stroke-opacity: 1.0;stroke-linecap: square;shape-rendering:geometricPrecision;; fill: none\" clip-path=\"url(#_948898096131805clip-1)\"><path d=\"M 25 10.14 L 25.4 10.14 L 25.8 10.14 L 26.2 10.14 L 26.6 10.14 L 27 10.14 L 27.4 10.14 L 27.8 10.14 L 28.2 10.14 L 28.6 10.14 L 29 10.14 L 29.4 10.14 L 29.8 10.14 L 30.2 10.14 L 30.6 10.14 L 31 10.14 L 31.4 10.14 L 31.8 10.14 L 32.19 10.14 L 32.59 10.14 L 32.99 10.14 L 33.39 10.14 L 33.79 10.14 L 34.19 10.14 L 34.59 10.14 L 34.99 10.14 L 35.39 10.14 L 35.79 10.14 L 36.19 10.14 L 36.59 10.14 L 36.99 10.14 L 37.39 10.14 L 37.79 10.14 L 38.19 10.14 L 38.59 10.14 L 38.99 10.14 L 39.39 10.14 L 39.79 10.14 L 40.19 10.14 L 40.59 10.14 L 40.99 10.14 L 41.39 10.14 L 41.79 10.14 L 42.19 10.14 L 42.59 10.14 L 42.99 10.14 L 43.39 10.14 L 43.79 10.14 L 44.19 10.14 L 44.59 10.14 L 44.99 10.14 L 45.39 10.14 L 45.79 10.14 L 46.19 10.14 L 46.58 10.14 L 46.98 10.14 L 47.38 10.14 L 47.78 10.14 L 48.18 10.14 L 48.58 10.14 L 48.98 10.14 L 49.38 10.14 L 49.78 10.14 L 50.18 10.14 L 50.58 10.14 L 50.98 10.14 L 51.38 10.14 L 51.78 10.14 L 52.18 10.14 L 52.58 10.14 L 52.98 10.14 L 53.38 10.14 L 53.78 10.14 L 54.18 10.14 L 54.58 10.14 L 54.98 10.14 L 55.38 10.14 L 55.78 10.14 L 56.18 10.14 L 56.58 10.14 L 56.98 10.14 L 57.38 10.14 L 57.78 10.14 L 58.18 10.14 L 58.58 10.14 L 58.98 10.14 L 59.38 10.14 L 59.78 10.14 L 60.18 10.14 L 60.57 10.14 L 60.97 10.14 L 61.37 10.14 L 61.77 10.14 L 62.17 10.14 L 62.57 10.14 L 62.97 10.14 L 63.37 10.14 L 63.77 10.14 L 64.17 10.14 L 64.57 10.14 L 64.97 10.14 L 65.37 10.14 L 65.77 10.14 L 66.17 10.14 L 66.57 10.14 L 66.97 10.14 L 67.37 10.14 L 67.77 10.14 L 68.17 10.14 L 68.57 10.14 L 68.97 10.14 L 69.37 10.14 L 69.77 10.14 L 70.17 10.14 L 70.57 10.14 L 70.97 10.14 L 71.37 10.14 L 71.77 10.14 L 72.17 10.14 L 72.57 10.14 L 72.97 10.14 L 73.37 10.14 L 73.77 10.14 L 74.17 10.14 L 74.56 10.14 L 74.96 10.14 L 75.36 10.14 L 75.76 10.14 L 76.16 10.14 L 76.56 10.14 L 76.96 10.14 L 77.36 10.14 L 77.76 10.14 L 78.16 10.14 L 78.56 10.14 L 78.96 10.14 L 79.36 10.14 L 79.76 10.14 L 80.16 10.14 L 80.56 10.14 L 80.96 10.14 L 81.36 10.14 L 81.76 10.14 L 82.16 10.14 L 82.56 10.14 L 82.96 10.14 L 83.36 10.14 L 83.76 10.14 L 84.16 10.14 L 84.56 10.14 L 84.96 10.14 L 85.36 10.14 L 85.76 10.14 L 86.16 10.14 L 86.56 10.14 L 86.96 10.14 L 87.36 10.14 L 87.76 10.14 L 88.16 10.14 L 88.56 10.14 L 88.95 10.14 L 89.35 10.14 L 89.75 10.14 L 90.15 10.14 L 90.55 10.14 L 90.95 10.14 L 91.35 10.14 L 91.75 10.14 L 92.15 10.14 L 92.55 10.14 L 92.95 10.14 L 93.35 10.14 L 93.75 10.14 L 94.15 10.14 L 94.55 10.14 L 94.95 10.14 L 95.35 10.14 L 95.75 10.14 L 96.15 10.14 L 96.55 10.14 L 96.95 10.14 L 97.35 10.14 L 97.75 10.14 L 98.15 10.14 L 98.55 10.14 L 98.95 10.14 L 99.35 10.14 L 99.75 10.14 L 100.15 10.14 L 100.55 10.14 L 100.95 10.14 L 101.35 10.14 L 101.75 10.14 L 102.15 10.14 L 102.55 10.14 L 102.94 10.14 L 103.34 10.14 L 103.74 10.14 L 104.14 10.14 L 104.54 10.14 L 104.94 10.14 L 105.34 10.14 L 105.74 10.14 L 106.14 10.14 L 106.54 10.14 L 106.94 10.14 L 107.34 10.14 L 107.74 10.14 L 108.14 10.14 L 108.54 10.14 L 108.94 10.14 L 109.34 10.14 L 109.74 10.14 L 110.14 10.14 L 110.54 10.14 L 110.94 10.14 L 111.34 10.14 L 111.74 10.14 L 112.14 10.14 L 112.54 10.14 L 112.94 10.14 L 113.34 10.14 L 113.74 10.14 L 114.14 10.14 L 114.54 10.14 L 114.94 10.14 L 115.34 10.14 L 115.74 10.14 L 116.14 10.14 L 116.54 10.14 L 116.93 10.14 L 117.33 10.14 L 117.73 10.14 L 118.13 10.14 L 118.53 10.14 L 118.93 10.14 L 119.33 10.14 L 119.73 10.14 L 120.13 10.14 L 120.53 10.14 L 120.93 10.14 L 121.33 10.14 L 121.73 10.14 L 122.13 10.14 L 122.53 10.14 L 122.93 10.14 L 123.33 10.14 L 123.73 10.14 L 124.13 10.14 L 124.53 10.14 L 124.93 10.14 L 125.33 10.14 L 125.73 10.14 L 126.13 10.14 L 126.53 10.14 L 126.93 10.14 L 127.33 10.14 L 127.73 53\"/></g></svg>","testResultSlaState":"FINISHED","slaResults":{"slaGroupList":[{"type":"GENERAL_TEST_SLA","targetType":"TEST","slaList":[{"restrictionType":"AVERAGE","fromDate":0,"toDate":3600,"operation":"LESS_EQUALS","value":3.0,"result":0.05,"status":"SUCCESS"}]}],"status":"SUCCESS"},"testResultFilesState":"FINISHED"},"testError":null},{"id":18793,"testProjectId":25411,"testProjectVersionId":26065,"testMode":"TEST","state":"CANCELED","displayState":"CANCELED","userId":22073,"userEmail":"group4user2000@pochta.ru","teamId":14,"createDate":"2024-08-30T11:03:22.688Z","startDate":"2024-08-30T11:03:24.534Z","endDate":"2024-08-30T11:59:29.304Z","comment":"","labelSet":[],"testProject":{"id":25411,"projectName":"group4user2000@pochta.ru_jmx_file","settingsId":null,"comment":null,"lastModified":null,"contentFormat":null,"contentModelVersion":null,"labelSet":null,"testType":null,"requestCount":null,"totalDuration":null,"version":null},"testProjectVersion":{"id":26065,"projectId":25411,"settingsId":null,"createdOn":1725015802.558000000,"location":"boomq/teams/14/projects/25411/v_26065.yaml","comment":"","contentFormat":"yaml","contentModelVersion":"1.0.0","testType":"OWN_JMX","requestCount":0,"totalDuration":3600,"versionNumber":30},"testResult":{"testId":18793,"usersChartSvg":"<svg xmlns=\"http://www.w3.org/2000/svg\" xmlns:xlink=\"http://www.w3.org/1999/xlink\" xmlns:jfreesvg=\"http://www.jfree.org/jfreesvg/svg\" width=\"150\" height=\"75\" text-rendering=\"auto\" shape-rendering=\"auto\">\n<defs><clipPath id=\"_948896702212149clip-0\"><path d=\"M 0 0 L 150 0 L 150 75 L 0 75 L 0 0 Z \"/></clipPath>\n<clipPath id=\"_948896702212149clip-1\"><path d=\"M 25 8 L 25 53 L 138 53 L 138 8 Z \"/></clipPath>\n</defs>\n<rect x=\"0\" y=\"0\" width=\"150\" height=\"75\" style=\"fill: rgb(255,255,255); fill-opacity: 1.0\" clip-path=\"url(#_948896702212149clip-0)\"/><rect x=\"25\" y=\"8\" width=\"113\" height=\"45\" style=\"fill: rgb(255,255,255); fill-opacity: 1.0\" clip-path=\"url(#_948896702212149clip-0)\"/><g ><text x=\"7\" y=\"69.11\" style=\"fill: rgb(0,0,0); fill-opacity: 1.0; font-family: sans-serif; font-size: 8px;\" clip-path=\"url(#_948896702212149clip-0)\">00:00:00</text></g><g ><text x=\"109.73\" y=\"69.11\" style=\"fill: rgb(0,0,0); fill-opacity: 1.0; font-family: sans-serif; font-size: 8px;\" clip-path=\"url(#_948896702212149clip-0)\">00:56:00</text></g><g ><text x=\"10\" y=\"56.11\" style=\"fill: rgb(0,0,0); fill-opacity: 1.0; font-family: sans-serif; font-size: 8px;\" clip-path=\"url(#_948896702212149clip-0)\">0</text></g><g ><text x=\"10\" y=\"13.26\" style=\"fill: rgb(0,0,0); fill-opacity: 1.0; font-family: sans-serif; font-size: 8px;\" clip-path=\"url(#_948896702212149clip-0)\">1</text></g><g style=\"stroke-width: 2.0;stroke: rgb(73,137,214);stroke-opacity: 1.0;stroke-linecap: square;shape-rendering:geometricPrecision;; fill: none\" clip-path=\"url(#_948896702212149clip-1)\"><path d=\"M 25 10.14 L 25.31 10.14 L 25.61 10.14 L 25.92 10.14 L 26.22 10.14 L 26.53 10.14 L 26.83 10.14 L 27.14 10.14 L 27.45 10.14 L 27.75 10.14 L 28.06 10.14 L 28.36 10.14 L 28.67 10.14 L 28.97 10.14 L 29.28 10.14 L 29.59 10.14 L 29.89 10.14 L 30.2 10.14 L 30.5 10.14 L 30.81 10.14 L 31.11 10.14 L 31.42 10.14 L 31.73 10.14 L 32.03 10.14 L 32.34 10.14 L 32.64 10.14 L 32.95 10.14 L 33.25 10.14 L 33.56 10.14 L 33.87 10.14 L 34.17 10.14 L 34.48 10.14 L 34.78 10.14 L 35.09 10.14 L 35.4 10.14 L 35.7 10.14 L 36.01 10.14 L 36.31 10.14 L 36.62 10.14 L 36.92 10.14 L 37.23 10.14 L 37.54 10.14 L 37.84 10.14 L 38.15 10.14 L 38.45 10.14 L 38.76 10.14 L 39.06 10.14 L 39.37 10.14 L 39.68 10.14 L 39.98 10.14 L 40.29 10.14 L 40.59 10.14 L 40.9 10.14 L 41.2 10.14 L 41.51 10.14 L 41.82 10.14 L 42.12 10.14 L 42.43 10.14 L 42.73 10.14 L 43.04 10.14 L 43.34 10.14 L 43.65 10.14 L 43.96 10.14 L 44.26 10.14 L 44.57 10.14 L 44.87 10.14 L 45.18 10.14 L 45.48 10.14 L 45.79 10.14 L 46.1 10.14 L 46.4 10.14 L 46.71 10.14 L 47.01 10.14 L 47.32 10.14 L 47.62 10.14 L 47.93 10.14 L 48.24 10.14 L 48.54 10.14 L 48.85 10.14 L 49.15 10.14 L 49.46 10.14 L 49.76 10.14 L 50.07 10.14 L 50.38 10.14 L 50.68 10.14 L 50.99 10.14 L 51.29 10.14 L 51.6 10.14 L 51.9 10.14 L 52.21 10.14 L 52.52 10.14 L 52.82 10.14 L 53.13 10.14 L 53.43 10.14 L 53.74 10.14 L 54.04 10.14 L 54.35 10.14 L 54.66 10.14 L 54.96 10.14 L 55.27 10.14 L 55.57 10.14 L 55.88 10.14 L 56.19 10.14 L 56.49 10.14 L 56.8 10.14 L 57.1 10.14 L 57.41 10.14 L 57.71 10.14 L 58.02 10.14 L 58.33 10.14 L 58.63 10.14 L 58.94 10.14 L 59.24 10.14 L 59.55 10.14 L 59.85 10.14 L 60.16 10.14 L 60.47 10.14 L 60.77 10.14 L 61.08 10.14 L 61.38 10.14 L 61.69 10.14 L 61.99 10.14 L 62.3 10.14 L 62.61 10.14 L 62.91 10.14 L 63.22 10.14 L 63.52 10.14 L 63.83 10.14 L 64.13 10.14 L 64.44 10.14 L 64.75 10.14 L 65.05 10.14 L 65.36 10.14 L 65.66 10.14 L 65.97 10.14 L 66.27 10.14 L 66.58 10.14 L 66.89 10.14 L 67.19 10.14 L 67.5 10.14 L 67.8 10.14 L 68.11 10.14 L 68.41 10.14 L 68.72 10.14 L 69.03 10.14 L 69.33 10.14 L 69.64 10.14 L 69.94 10.14 L 70.25 10.14 L 70.55 10.14 L 70.86 10.14 L 71.17 10.14 L 71.47 10.14 L 71.78 10.14 L 72.08 10.14 L 72.39 10.14 L 72.69 10.14 L 73 10.14 L 73.31 10.14 L 73.61 10.14 L 73.92 10.14 L 74.22 10.14 L 74.53 10.14 L 74.83 10.14 L 75.14 10.14 L 75.45 10.14 L 75.75 10.14 L 76.06 10.14 L 76.36 10.14 L 76.67 10.14 L 76.98 10.14 L 77.28 10.14 L 77.59 10.14 L 77.89 10.14 L 78.2 10.14 L 78.5 10.14 L 78.81 10.14 L 79.12 10.14 L 79.42 10.14 L 79.73 10.14 L 80.03 10.14 L 80.34 10.14 L 80.64 10.14 L 80.95 10.14 L 81.26 10.14 L 81.56 10.14 L 81.87 10.14 L 82.17 10.14 L 82.48 10.14 L 82.78 10.14 L 83.09 10.14 L 83.4 10.14 L 83.7 10.14 L 84.01 10.14 L 84.31 10.14 L 84.62 10.14 L 84.92 10.14 L 85.23 10.14 L 85.54 10.14 L 85.84 10.14 L 86.15 10.14 L 86.45 10.14 L 86.76 10.14 L 87.06 10.14 L 87.37 10.14 L 87.68 10.14 L 87.98 10.14 L 88.29 10.14 L 88.59 10.14 L 88.9 10.14 L 89.2 10.14 L 89.51 10.14 L 89.82 10.14 L 90.12 10.14 L 90.43 10.14 L 90.73 10.14 L 91.04 10.14 L 91.34 10.14 L 91.65 10.14 L 91.96 10.14 L 92.26 10.14 L 92.57 10.14 L 92.87 10.14 L 93.18 10.14 L 93.48 10.14 L 93.79 10.14 L 94.1 10.14 L 94.4 10.14 L 94.71 10.14 L 95.01 10.14 L 95.32 10.14 L 95.62 10.14 L 95.93 10.14 L 96.24 10.14 L 96.54 10.14 L 96.85 10.14 L 97.15 10.14 L 97.46 10.14 L 97.77 10.14 L 98.07 10.14 L 98.38 10.14 L 98.68 10.14 L 98.99 10.14 L 99.29 10.14 L 99.6 10.14 L 99.91 10.14 L 100.21 10.14 L 100.52 10.14 L 100.82 10.14 L 101.13 10.14 L 101.43 10.14 L 101.74 10.14 L 102.05 10.14 L 102.35 10.14 L 102.66 10.14 L 102.96 10.14 L 103.27 10.14 L 103.57 10.14 L 103.88 10.14 L 104.19 10.14 L 104.49 10.14 L 104.8 10.14 L 105.1 10.14 L 105.41 10.14 L 105.71 10.14 L 106.02 10.14 L 106.33 10.14 L 106.63 10.14 L 106.94 10.14 L 107.24 10.14 L 107.55 10.14 L 107.85 10.14 L 108.16 10.14 L 108.47 10.14 L 108.77 10.14 L 109.08 10.14 L 109.38 10.14 L 109.69 10.14 L 109.99 10.14 L 110.3 10.14 L 110.61 10.14 L 110.91 10.14 L 111.22 10.14 L 111.52 10.14 L 111.83 10.14 L 112.13 10.14 L 112.44 10.14 L 112.75 10.14 L 113.05 10.14 L 113.36 10.14 L 113.66 10.14 L 113.97 10.14 L 114.27 10.14 L 114.58 10.14 L 114.89 10.14 L 115.19 10.14 L 115.5 10.14 L 115.8 10.14 L 116.11 10.14 L 116.42 10.14 L 116.72 10.14 L 117.03 10.14 L 117.33 10.14 L 117.64 10.14 L 117.94 10.14 L 118.25 10.14 L 118.56 10.14 L 118.86 10.14 L 119.17 10.14 L 119.47 10.14 L 119.78 10.14 L 120.08 10.14 L 120.39 10.14 L 120.7 10.14 L 121 10.14 L 121.31 10.14 L 121.61 10.14 L 121.92 10.14 L 122.22 10.14 L 122.53 10.14 L 122.84 10.14 L 123.14 10.14 L 123.45 10.14 L 123.75 10.14 L 124.06 10.14 L 124.36 10.14 L 124.67 10.14 L 124.98 10.14 L 125.28 10.14 L 125.59 10.14 L 125.89 10.14 L 126.2 10.14 L 126.5 10.14 L 126.81 10.14 L 127.12 10.14 L 127.42 10.14 L 127.73 53\"/></g></svg>","testResultSlaState":"FINISHED","slaResults":{"slaGroupList":[{"type":"GENERAL_TEST_SLA","targetType":"TEST","slaList":[{"restrictionType":"AVERAGE","fromDate":0,"toDate":3600,"operation":"LESS_EQUALS","value":3.0,"result":0.05,"status":"SUCCESS"}]}],"status":"SUCCESS"},"testResultFilesState":"FINISHED"},"testError":null},{"id":18792,"testProjectId":25413,"testProjectVersionId":26064,"testMode":"TEST","state":"CANCELED","displayState":"CANCELED","userId":1874,"userEmail":"rpavel6757@gmail.com","teamId":14,"createDate":"2024-08-30T11:02:23.867Z","startDate":"2024-08-30T11:02:25.853Z","endDate":"2024-08-30T11:02:50.384Z","comment":"","labelSet":[],"testProject":{"id":25413,"projectName":"group4user2002@pochta.ru_jmx_file","settingsId":null,"comment":null,"lastModified":null,"contentFormat":null,"contentModelVersion":null,"labelSet":null,"testType":null,"requestCount":null,"totalDuration":null,"version":null},"testProjectVersion":{"id":26064,"projectId":25413,"settingsId":null,"createdOn":1725015743.811000000,"location":"boomq/teams/14/projects/25413/v_26064.yaml","comment":"","contentFormat":"yaml","contentModelVersion":"1.0.0","testType":"OWN_JMX","requestCount":0,"totalDuration":3600,"versionNumber":7},"testResult":{"testId":18792,"usersChartSvg":"<svg xmlns=\"http://www.w3.org/2000/svg\" xmlns:xlink=\"http://www.w3.org/1999/xlink\" xmlns:jfreesvg=\"http://www.jfree.org/jfreesvg/svg\" width=\"150\" height=\"75\" text-rendering=\"auto\" shape-rendering=\"auto\">\n<defs><clipPath id=\"_945497734721777clip-0\"><path d=\"M 0 0 L 150 0 L 150 75 L 0 75 L 0 0 Z \"/></clipPath>\n<clipPath id=\"_945497734721777clip-1\"><path d=\"M 25 8 L 25 53 L 138 53 L 138 8 Z \"/></clipPath>\n</defs>\n<rect x=\"0\" y=\"0\" width=\"150\" height=\"75\" style=\"fill: rgb(255,255,255); fill-opacity: 1.0\" clip-path=\"url(#_945497734721777clip-0)\"/><rect x=\"25\" y=\"8\" width=\"113\" height=\"45\" style=\"fill: rgb(255,255,255); fill-opacity: 1.0\" clip-path=\"url(#_945497734721777clip-0)\"/><g ><text x=\"7\" y=\"69.11\" style=\"fill: rgb(0,0,0); fill-opacity: 1.0; font-family: sans-serif; font-size: 8px;\" clip-path=\"url(#_945497734721777clip-0)\">00:00:00</text></g><g ><text x=\"109.73\" y=\"69.11\" style=\"fill: rgb(0,0,0); fill-opacity: 1.0; font-family: sans-serif; font-size: 8px;\" clip-path=\"url(#_945497734721777clip-0)\">00:00:30</text></g><g ><text x=\"10\" y=\"56.11\" style=\"fill: rgb(0,0,0); fill-opacity: 1.0; font-family: sans-serif; font-size: 8px;\" clip-path=\"url(#_945497734721777clip-0)\">0</text></g><g ><text x=\"10\" y=\"13.26\" style=\"fill: rgb(0,0,0); fill-opacity: 1.0; font-family: sans-serif; font-size: 8px;\" clip-path=\"url(#_945497734721777clip-0)\">1</text></g><g style=\"stroke-width: 2.0;stroke: rgb(73,137,214);stroke-opacity: 1.0;stroke-linecap: square;shape-rendering:geometricPrecision;; fill: none\" clip-path=\"url(#_945497734721777clip-1)\"><path d=\"M 25 53 L 59.24 10.14 L 93.48 10.14 L 127.73 53\"/></g></svg>","testResultSlaState":"FINISHED","slaResults":{"slaGroupList":[{"type":"GENERAL_TEST_SLA","targetType":"TEST","slaList":[{"restrictionType":"AVERAGE","fromDate":0,"toDate":3600,"operation":"LESS_EQUALS","value":3.0,"result":0.04,"status":"SUCCESS"},{"restrictionType":"THROUGHPUT","fromDate":0,"toDate":3600,"operation":"LESS_EQUALS","value":0.0,"result":0.0,"status":"SUCCESS"}]}],"status":"SUCCESS"},"testResultFilesState":"FINISHED"},"testError":null},{"id":18791,"testProjectId":25411,"testProjectVersionId":26063,"testMode":"TEST","state":"CANCELED","displayState":"CANCELED","userId":22073,"userEmail":"group4user2000@pochta.ru","teamId":14,"createDate":"2024-08-30T11:01:07.297Z","startDate":"2024-08-30T11:01:09.191Z","endDate":"2024-08-30T11:02:54.864Z","comment":"","labelSet":[],"testProject":{"id":25411,"projectName":"group4user2000@pochta.ru_jmx_file","settingsId":null,"comment":null,"lastModified":null,"contentFormat":null,"contentModelVersion":null,"labelSet":null,"testType":null,"requestCount":null,"totalDuration":null,"version":null},"testProjectVersion":{"id":26063,"projectId":25411,"settingsId":null,"createdOn":1725015667.170000000,"location":"boomq/teams/14/projects/25411/v_26063.yaml","comment":"","contentFormat":"yaml","contentModelVersion":"1.0.0","testType":"OWN_JMX","requestCount":0,"totalDuration":3600,"versionNumber":29},"testResult":{"testId":18791,"usersChartSvg":"<svg xmlns=\"http://www.w3.org/2000/svg\" xmlns:xlink=\"http://www.w3.org/1999/xlink\" xmlns:jfreesvg=\"http://www.jfree.org/jfreesvg/svg\" width=\"150\" height=\"75\" text-rendering=\"auto\" shape-rendering=\"auto\">\n<defs><clipPath id=\"_945502210764341clip-0\"><path d=\"M 0 0 L 150 0 L 150 75 L 0 75 L 0 0 Z \"/></clipPath>\n<clipPath id=\"_945502210764341clip-1\"><path d=\"M 25 8 L 25 53 L 138 53 L 138 8 Z \"/></clipPath>\n</defs>\n<rect x=\"0\" y=\"0\" width=\"150\" height=\"75\" style=\"fill: rgb(255,255,255); fill-opacity: 1.0\" clip-path=\"url(#_945502210764341clip-0)\"/><rect x=\"25\" y=\"8\" width=\"113\" height=\"45\" style=\"fill: rgb(255,255,255); fill-opacity: 1.0\" clip-path=\"url(#_945502210764341clip-0)\"/><g ><text x=\"7\" y=\"69.11\" style=\"fill: rgb(0,0,0); fill-opacity: 1.0; font-family: sans-serif; font-size: 8px;\" clip-path=\"url(#_945502210764341clip-0)\">00:00:00</text></g><g ><text x=\"109.73\" y=\"69.11\" style=\"fill: rgb(0,0,0); fill-opacity: 1.0; font-family: sans-serif; font-size: 8px;\" clip-path=\"url(#_945502210764341clip-0)\">00:01:50</text></g><g ><text x=\"10\" y=\"56.11\" style=\"fill: rgb(0,0,0); fill-opacity: 1.0; font-family: sans-serif; font-size: 8px;\" clip-path=\"url(#_945502210764341clip-0)\">0</text></g><g ><text x=\"10\" y=\"13.26\" style=\"fill: rgb(0,0,0); fill-opacity: 1.0; font-family: sans-serif; font-size: 8px;\" clip-path=\"url(#_945502210764341clip-0)\">1</text></g><g style=\"stroke-width: 2.0;stroke: rgb(73,137,214);stroke-opacity: 1.0;stroke-linecap: square;shape-rendering:geometricPrecision;; fill: none\" clip-path=\"url(#_945502210764341clip-1)\"><path d=\"M 25 53 L 34.34 10.14 L 43.68 10.14 L 53.02 10.14 L 62.36 10.14 L 71.69 10.14 L 81.03 10.14 L 90.37 10.14 L 99.71 10.14 L 109.05 10.14 L 118.39 10.14 L 127.73 53\"/></g></svg>","testResultSlaState":"FINISHED","slaResults":{"slaGroupList":[{"type":"GENERAL_TEST_SLA","targetType":"TEST","slaList":[{"restrictionType":"AVERAGE","fromDate":0,"toDate":3600,"operation":"LESS_EQUALS","value":3.0,"result":0.05,"status":"SUCCESS"}]}],"status":"SUCCESS"},"testResultFilesState":"FINISHED"},"testError":null}],"pageable":{"sort":{"unsorted":false,"sorted":true,"empty":false},"offset":0,"pageNumber":0,"pageSize":7,"paged":true,"unpaged":false},"totalElements":245,"totalPages":35,"last":false,"first":true,"size":7,"number":0,"sort":{"unsorted":false,"sorted":true,"empty":false},"numberOfElements":7,"empty":false}